Werk;Periode;ExterneLagermenge;ExterneLagerkosten
DE59757;January;3693.93;36939.3
DE59757;February;0;0
DE59757;March;0;0
DE34431;January;3625.37;36253.7
DE34431;February;0;0
DE34431;March;0;0
DE09648;January;0;0
DE09648;February;0;0
DE09648;March;0;0
DE06237;January;5498.54;54985.4
DE06237;February;0;0
DE06237;March;0;0
DE55120;January;0;0
DE55120;February;0;0
DE55120;March;0;0
PL58573;January;0;0
PL58573;February;0;0
PL58573;March;0;0
FR59166;January;2254.32;22543.2
FR59166;February;0;0
FR59166;March;0;0
IT55100;January;0;0
IT55100;February;0;0
IT55100;March;0;0
IT03043;January;0;0
IT03043;February;0;0
IT03043;March;0;0
ES50600;January;792.419;7924.19
ES50600;February;0;0
ES50600;March;0;0
FR10000;January;0;0
FR10000;February;0;0
FR10000;March;0;0
DE18147;January;492;4920
DE18147;February;0;0
DE18147;March;0;0
