Werk1;Werk2;Monat;eingehende IC-Transporte in Paletten;eingehende IC-Transportkosten;ausgehende IC-Transporte in Paletten;ausgehende IC-Transportkosten
DE59757;DE34431;August;3040.012133;11623.575802;1454.500000;5561.323529;
DE59757;DE34431;September;1433.448649;5480.833070;894.040147;3418.388797;
DE59757;DE34431;October;1338.000000;5115.882353;473.000000;1808.529412;
DE59757;DE09648;August;1424.749099;20994.097014;642.000000;8874.705882;
DE59757;DE09648;September;1236.251201;18216.525053;40.000000;552.941176;
DE59757;DE09648;October;1189.500000;17527.632353;0.000000;0.000000;
DE59757;DE06237;August;30.000000;397.058824;82.000000;1085.294118;
DE59757;DE06237;September;10.000000;132.352941;171.000000;2263.235294;
DE59757;DE06237;October;42.000000;555.882353;0.000000;0.000000;
DE59757;DE55120;August;143.500000;1350.588235;3.000000;26.470588;
DE59757;DE55120;September;49.000000;461.176471;0.000000;0.000000;
DE59757;DE55120;October;59.500000;560.000000;0.000000;0.000000;
DE59757;PL58573;August;1646.958309;33907.965188;3761.566206;71912.295108;
DE59757;PL58573;September;1316.229215;27098.836787;283.000000;5410.294118;
DE59757;PL58573;October;997.812476;20543.198025;386.500000;7388.970588;
DE59757;FR59166;August;3909.000000;63233.823529;2.000000;29.411765;
DE59757;FR59166;September;284.999700;4610.289265;4.000000;58.823529;
DE59757;FR59166;October;122.500000;1981.617647;0.000000;0.000000;
DE59757;IT55100;August;0.000000;0.000000;11.000000;452.941176;
DE59757;IT55100;September;0.000000;0.000000;11.000000;452.941176;
DE59757;IT55100;October;0.000000;0.000000;11.000000;452.941176;
DE59757;IT03043;August;0.000000;0.000000;0.000000;0.000000;
DE59757;IT03043;September;0.000000;0.000000;0.000000;0.000000;
DE59757;IT03043;October;0.000000;0.000000;0.000000;0.000000;
DE59757;ES50600;August;0.000000;0.000000;0.000000;0.000000;
DE59757;ES50600;September;0.000000;0.000000;0.000000;0.000000;
DE59757;ES50600;October;0.000000;0.000000;0.000000;0.000000;
DE59757;FR10000;August;0.000000;0.000000;0.000000;0.000000;
DE59757;FR10000;September;0.000000;0.000000;0.000000;0.000000;
DE59757;FR10000;October;0.000000;0.000000;0.000000;0.000000;
DE59757;DE18147;August;0.000000;0.000000;30.693356;248.149015;
DE59757;DE18147;September;0.000000;0.000000;21.000000;169.780368;
DE59757;DE18147;October;0.000000;0.000000;17.000000;137.441250;
DE34431;DE59757;August;1454.500000;5561.323529;3040.012133;11623.575802;
DE34431;DE59757;September;894.040147;3418.388797;1433.448649;5480.833070;
DE34431;DE59757;October;473.000000;1808.529412;1338.000000;5115.882353;
DE34431;DE09648;August;1049.491636;14507.678495;96.000000;1327.058824;
DE34431;DE09648;September;338.508364;4679.380329;20.000000;276.470588;
DE34431;DE09648;October;457.000000;6317.352941;22.000000;304.117647;
DE34431;DE06237;August;626.000000;6444.117647;207.000000;2739.705882;
DE34431;DE06237;September;433.000000;4457.352941;227.000000;3004.411765;
DE34431;DE06237;October;162.000000;1667.647059;65.000000;860.294118;
DE34431;DE55120;August;1390.000000;13082.352941;721.000000;6637.441176;
DE34431;DE55120;September;707.000000;6654.117647;254.000000;2338.294118;
DE34431;DE55120;October;205.000000;1929.411765;219.000000;2016.088235;
DE34431;PL58573;August;736.000080;13810.825023;561.933794;10742.851951;
DE34431;PL58573;September;736.999920;13829.586742;92.000000;1758.823529;
DE34431;PL58573;October;358.000000;6717.764706;163.000000;3116.176471;
DE34431;FR59166;August;0.000000;0.000000;5091.371595;78467.021052;
DE34431;FR59166;September;0.000000;0.000000;368.888900;5685.228929;
DE34431;FR59166;October;0.000000;0.000000;812.000000;12514.352941;
DE34431;IT55100;August;0.000000;0.000000;0.000000;0.000000;
DE34431;IT55100;September;0.000000;0.000000;0.000000;0.000000;
DE34431;IT55100;October;0.000000;0.000000;0.000000;0.000000;
DE34431;IT03043;August;0.000000;0.000000;0.000000;0.000000;
DE34431;IT03043;September;0.000000;0.000000;0.000000;0.000000;
DE34431;IT03043;October;0.000000;0.000000;0.000000;0.000000;
DE34431;ES50600;August;0.000000;0.000000;0.000000;0.000000;
DE34431;ES50600;September;0.000000;0.000000;0.000000;0.000000;
DE34431;ES50600;October;0.000000;0.000000;0.000000;0.000000;
DE34431;FR10000;August;0.000000;0.000000;0.000000;0.000000;
DE34431;FR10000;September;0.000000;0.000000;0.000000;0.000000;
DE34431;FR10000;October;0.000000;0.000000;0.000000;0.000000;
DE34431;DE18147;August;0.000000;0.000000;63.306644;508.835155;
DE34431;DE18147;September;0.000000;0.000000;46.000000;369.730818;
DE34431;DE18147;October;0.000000;0.000000;27.000000;217.015915;
DE09648;DE59757;August;642.000000;8874.705882;1424.749099;20994.097014;
DE09648;DE59757;September;40.000000;552.941176;1236.251201;18216.525053;
DE09648;DE59757;October;0.000000;0.000000;1189.500000;17527.632353;
DE09648;DE34431;August;96.000000;1327.058824;1049.491636;14507.678495;
DE09648;DE34431;September;20.000000;276.470588;338.508364;4679.380329;
DE09648;DE34431;October;22.000000;304.117647;457.000000;6317.352941;
DE09648;DE06237;August;1672.000000;11212.235294;1972.500000;14329.632353;
DE09648;DE06237;September;498.000000;3339.529412;393.000000;2855.029412;
DE09648;DE06237;October;563.000000;3775.411765;470.500000;3418.044118;
DE09648;DE55120;August;502.000000;6791.764706;892.999400;13132.344118;
DE09648;DE55120;September;512.000000;6927.058824;677.500000;9963.235294;
DE09648;DE55120;October;492.000000;6656.470588;833.500000;12257.352941;
DE09648;PL58573;August;188.000000;2488.235294;1366.250000;13260.661765;
DE09648;PL58573;September;216.500000;2865.441176;596.028052;5784.978156;
DE09648;PL58573;October;116.558206;1542.682141;376.971948;3658.845373;
DE09648;FR59166;August;0.000000;0.000000;0.000000;0.000000;
DE09648;FR59166;September;27.800000;776.764706;0.000000;0.000000;
DE09648;FR59166;October;0.000000;0.000000;0.000000;0.000000;
DE09648;IT55100;August;1.000000;44.117647;0.000000;0.000000;
DE09648;IT55100;September;205.000000;9044.117647;0.000000;0.000000;
DE09648;IT55100;October;0.000000;0.000000;0.000000;0.000000;
DE09648;IT03043;August;0.000000;0.000000;0.000000;0.000000;
DE09648;IT03043;September;0.000000;0.000000;0.000000;0.000000;
DE09648;IT03043;October;0.000000;0.000000;0.000000;0.000000;
DE09648;ES50600;August;0.000000;0.000000;0.000000;0.000000;
DE09648;ES50600;September;0.000000;0.000000;0.000000;0.000000;
DE09648;ES50600;October;0.000000;0.000000;0.000000;0.000000;
DE09648;FR10000;August;0.000000;0.000000;0.000000;0.000000;
DE09648;FR10000;September;0.000000;0.000000;0.000000;0.000000;
DE09648;FR10000;October;0.000000;0.000000;0.000000;0.000000;
DE09648;DE18147;August;0.000000;0.000000;44.000000;352.929047;
DE09648;DE18147;September;0.000000;0.000000;149.000000;1195.146091;
DE09648;DE18147;October;0.000000;0.000000;166.000000;1331.505041;
DE06237;DE59757;August;82.000000;1085.294118;30.000000;397.058824;
DE06237;DE59757;September;171.000000;2263.235294;10.000000;132.352941;
DE06237;DE59757;October;0.000000;0.000000;42.000000;555.882353;
DE06237;DE34431;August;207.000000;2739.705882;626.000000;6444.117647;
DE06237;DE34431;September;227.000000;3004.411765;433.000000;4457.352941;
DE06237;DE34431;October;65.000000;860.294118;162.000000;1667.647059;
DE06237;DE09648;August;1972.500000;14329.632353;1672.000000;11212.235294;
DE06237;DE09648;September;393.000000;2855.029412;498.000000;3339.529412;
DE06237;DE09648;October;470.500000;3418.044118;563.000000;3775.411765;
DE06237;DE55120;August;211.000000;3102.941176;45.000000;661.764706;
DE06237;DE55120;September;236.500000;3477.941176;0.000000;0.000000;
DE06237;DE55120;October;12.500000;183.823529;0.000000;0.000000;
DE06237;PL58573;August;0.000000;0.000000;0.000000;0.000000;
DE06237;PL58573;September;0.000000;0.000000;53.000000;682.764706;
DE06237;PL58573;October;0.000000;0.000000;0.000000;0.000000;
DE06237;FR59166;August;0.000000;0.000000;0.000000;0.000000;
DE06237;FR59166;September;0.000000;0.000000;0.000000;0.000000;
DE06237;FR59166;October;0.000000;0.000000;0.000000;0.000000;
DE06237;IT55100;August;119.000000;5250.000000;48.000000;1976.470588;
DE06237;IT55100;September;59.000000;2602.941176;0.000000;0.000000;
DE06237;IT55100;October;74.000000;3264.705882;0.000000;0.000000;
DE06237;IT03043;August;0.000000;0.000000;0.000000;0.000000;
DE06237;IT03043;September;0.000000;0.000000;0.000000;0.000000;
DE06237;IT03043;October;0.000000;0.000000;0.000000;0.000000;
DE06237;ES50600;August;0.000000;0.000000;0.000000;0.000000;
DE06237;ES50600;September;0.000000;0.000000;0.000000;0.000000;
DE06237;ES50600;October;0.000000;0.000000;0.000000;0.000000;
DE06237;FR10000;August;0.000000;0.000000;0.000000;0.000000;
DE06237;FR10000;September;0.000000;0.000000;0.000000;0.000000;
DE06237;FR10000;October;0.000000;0.000000;0.000000;0.000000;
DE06237;DE18147;August;0.000000;0.000000;280.000000;1871.002000;
DE06237;DE18147;September;0.000000;0.000000;204.000000;1363.158600;
DE06237;DE18147;October;0.000000;0.000000;340.000000;2271.931000;
DE55120;DE59757;August;3.000000;26.470588;143.500000;1350.588235;
DE55120;DE59757;September;0.000000;0.000000;49.000000;461.176471;
DE55120;DE59757;October;0.000000;0.000000;59.500000;560.000000;
DE55120;DE34431;August;721.000000;6637.441176;1390.000000;13082.352941;
DE55120;DE34431;September;254.000000;2338.294118;707.000000;6654.117647;
DE55120;DE34431;October;219.000000;2016.088235;205.000000;1929.411765;
DE55120;DE09648;August;892.999400;13132.344118;502.000000;6791.764706;
DE55120;DE09648;September;677.500000;9963.235294;512.000000;6927.058824;
DE55120;DE09648;October;833.500000;12257.352941;492.000000;6656.470588;
DE55120;DE06237;August;45.000000;661.764706;211.000000;3102.941176;
DE55120;DE06237;September;0.000000;0.000000;236.500000;3477.941176;
DE55120;DE06237;October;0.000000;0.000000;12.500000;183.823529;
DE55120;PL58573;August;559.300213;10199.003881;570.000000;10394.117647;
DE55120;PL58573;September;84.000000;1531.764706;204.000000;3720.000000;
DE55120;PL58573;October;0.000000;0.000000;412.000000;7512.941176;
DE55120;FR59166;August;0.000000;0.000000;1055.799613;13973.818405;
DE55120;FR59166;September;0.000000;0.000000;336.500000;4453.676471;
DE55120;FR59166;October;0.000000;0.000000;623.000000;8245.588235;
DE55120;IT55100;August;215.500000;9063.676471;0.000000;0.000000;
DE55120;IT55100;September;268.500000;11292.794118;0.000000;0.000000;
DE55120;IT55100;October;64.000000;2691.764706;0.000000;0.000000;
DE55120;IT03043;August;0.000000;0.000000;0.000000;0.000000;
DE55120;IT03043;September;0.000000;0.000000;0.000000;0.000000;
DE55120;IT03043;October;0.000000;0.000000;0.000000;0.000000;
DE55120;ES50600;August;0.000000;0.000000;0.000000;0.000000;
DE55120;ES50600;September;0.000000;0.000000;0.000000;0.000000;
DE55120;ES50600;October;0.000000;0.000000;0.000000;0.000000;
DE55120;FR10000;August;0.000000;0.000000;0.000000;0.000000;
DE55120;FR10000;September;0.000000;0.000000;0.000000;0.000000;
DE55120;FR10000;October;0.000000;0.000000;0.000000;0.000000;
DE55120;DE18147;August;0.000000;0.000000;0.000000;0.000000;
DE55120;DE18147;September;0.000000;0.000000;0.000000;0.000000;
DE55120;DE18147;October;0.000000;0.000000;0.000000;0.000000;
PL58573;DE59757;August;3761.566206;71912.295108;1646.958309;33907.965188;
PL58573;DE59757;September;283.000000;5410.294118;1316.229215;27098.836787;
PL58573;DE59757;October;386.500000;7388.970588;997.812476;20543.198025;
PL58573;DE34431;August;561.933794;10742.851951;736.000080;13810.825023;
PL58573;DE34431;September;92.000000;1758.823529;736.999920;13829.586742;
PL58573;DE34431;October;163.000000;3116.176471;358.000000;6717.764706;
PL58573;DE09648;August;1366.250000;13260.661765;188.000000;2488.235294;
PL58573;DE09648;September;596.028052;5784.978156;216.500000;2865.441176;
PL58573;DE09648;October;376.971948;3658.845373;116.558206;1542.682141;
PL58573;DE06237;August;0.000000;0.000000;0.000000;0.000000;
PL58573;DE06237;September;53.000000;682.764706;0.000000;0.000000;
PL58573;DE06237;October;0.000000;0.000000;0.000000;0.000000;
PL58573;DE55120;August;570.000000;10394.117647;559.300213;10199.003881;
PL58573;DE55120;September;204.000000;3720.000000;84.000000;1531.764706;
PL58573;DE55120;October;412.000000;7512.941176;0.000000;0.000000;
PL58573;FR59166;August;8.000000;298.823529;32.000000;1129.411765;
PL58573;FR59166;September;0.000000;0.000000;0.000000;0.000000;
PL58573;FR59166;October;0.000000;0.000000;0.000000;0.000000;
PL58573;IT55100;August;27.000000;1310.294118;0.000000;0.000000;
PL58573;IT55100;September;7.000000;339.705882;0.000000;0.000000;
PL58573;IT55100;October;17.000000;825.000000;0.000000;0.000000;
PL58573;IT03043;August;0.000000;0.000000;0.000000;0.000000;
PL58573;IT03043;September;0.000000;0.000000;0.000000;0.000000;
PL58573;IT03043;October;0.000000;0.000000;0.000000;0.000000;
PL58573;ES50600;August;0.000000;0.000000;0.000000;0.000000;
PL58573;ES50600;September;0.000000;0.000000;0.000000;0.000000;
PL58573;ES50600;October;0.000000;0.000000;0.000000;0.000000;
PL58573;FR10000;August;51.000000;1747.500000;0.000000;0.000000;
PL58573;FR10000;September;0.000000;0.000000;0.000000;0.000000;
PL58573;FR10000;October;0.000000;0.000000;0.000000;0.000000;
PL58573;DE18147;August;0.000000;0.000000;0.000000;0.000000;
PL58573;DE18147;September;0.000000;0.000000;0.000000;0.000000;
PL58573;DE18147;October;0.000000;0.000000;0.000000;0.000000;
FR59166;DE59757;August;2.000000;29.411765;3909.000000;63233.823529;
FR59166;DE59757;September;4.000000;58.823529;284.999700;4610.289265;
FR59166;DE59757;October;0.000000;0.000000;122.500000;1981.617647;
FR59166;DE34431;August;5091.371595;78467.021052;0.000000;0.000000;
FR59166;DE34431;September;368.888900;5685.228929;0.000000;0.000000;
FR59166;DE34431;October;812.000000;12514.352941;0.000000;0.000000;
FR59166;DE09648;August;0.000000;0.000000;0.000000;0.000000;
FR59166;DE09648;September;0.000000;0.000000;27.800000;776.764706;
FR59166;DE09648;October;0.000000;0.000000;0.000000;0.000000;
FR59166;DE06237;August;0.000000;0.000000;0.000000;0.000000;
FR59166;DE06237;September;0.000000;0.000000;0.000000;0.000000;
FR59166;DE06237;October;0.000000;0.000000;0.000000;0.000000;
FR59166;DE55120;August;1055.799613;13973.818405;0.000000;0.000000;
FR59166;DE55120;September;336.500000;4453.676471;0.000000;0.000000;
FR59166;DE55120;October;623.000000;8245.588235;0.000000;0.000000;
FR59166;PL58573;August;32.000000;1129.411765;8.000000;298.823529;
FR59166;PL58573;September;0.000000;0.000000;0.000000;0.000000;
FR59166;PL58573;October;0.000000;0.000000;0.000000;0.000000;
FR59166;IT55100;August;476.324696;23115.757310;0.000000;0.000000;
FR59166;IT55100;September;366.109160;17767.062174;0.000000;0.000000;
FR59166;IT55100;October;130.717544;6343.645515;0.000000;0.000000;
FR59166;IT03043;August;0.000000;0.000000;0.000000;0.000000;
FR59166;IT03043;September;0.000000;0.000000;0.000000;0.000000;
FR59166;IT03043;October;0.000000;0.000000;0.000000;0.000000;
FR59166;ES50600;August;254.500000;9558.720588;7013.150404;278463.324874;
FR59166;ES50600;September;51.500000;1934.279412;4358.760498;173068.431535;
FR59166;ES50600;October;194.000000;7286.411765;3748.089098;148821.184767;
FR59166;FR10000;August;0.100000;3.426471;0.000000;0.000000;
FR59166;FR10000;September;0.000000;0.000000;0.000000;0.000000;
FR59166;FR10000;October;0.000000;0.000000;0.000000;0.000000;
FR59166;DE18147;August;0.000000;0.000000;0.000000;0.000000;
FR59166;DE18147;September;0.000000;0.000000;0.000000;0.000000;
FR59166;DE18147;October;0.000000;0.000000;0.000000;0.000000;
IT55100;DE59757;August;11.000000;452.941176;0.000000;0.000000;
IT55100;DE59757;September;11.000000;452.941176;0.000000;0.000000;
IT55100;DE59757;October;11.000000;452.941176;0.000000;0.000000;
IT55100;DE34431;August;0.000000;0.000000;0.000000;0.000000;
IT55100;DE34431;September;0.000000;0.000000;0.000000;0.000000;
IT55100;DE34431;October;0.000000;0.000000;0.000000;0.000000;
IT55100;DE09648;August;0.000000;0.000000;1.000000;44.117647;
IT55100;DE09648;September;0.000000;0.000000;205.000000;9044.117647;
IT55100;DE09648;October;0.000000;0.000000;0.000000;0.000000;
IT55100;DE06237;August;48.000000;1976.470588;119.000000;5250.000000;
IT55100;DE06237;September;0.000000;0.000000;59.000000;2602.941176;
IT55100;DE06237;October;0.000000;0.000000;74.000000;3264.705882;
IT55100;DE55120;August;0.000000;0.000000;215.500000;9063.676471;
IT55100;DE55120;September;0.000000;0.000000;268.500000;11292.794118;
IT55100;DE55120;October;0.000000;0.000000;64.000000;2691.764706;
IT55100;PL58573;August;0.000000;0.000000;27.000000;1310.294118;
IT55100;PL58573;September;0.000000;0.000000;7.000000;339.705882;
IT55100;PL58573;October;0.000000;0.000000;17.000000;825.000000;
IT55100;FR59166;August;0.000000;0.000000;476.324696;23115.757310;
IT55100;FR59166;September;0.000000;0.000000;366.109160;17767.062174;
IT55100;FR59166;October;0.000000;0.000000;130.717544;6343.645515;
IT55100;IT03043;August;884.857777;9369.082343;2365.061800;41736.384706;
IT55100;IT03043;September;872.921023;9242.693187;745.000000;13147.058824;
IT55100;IT03043;October;603.000000;6384.705882;720.500000;12714.705882;
IT55100;ES50600;August;423.857100;19135.901426;453.650000;19346.838235;
IT55100;ES50600;September;0.000000;0.000000;102.850000;4386.250000;
IT55100;ES50600;October;0.000000;0.000000;244.500000;10427.205882;
IT55100;FR10000;August;0.000000;0.000000;0.000000;0.000000;
IT55100;FR10000;September;0.000000;0.000000;0.000000;0.000000;
IT55100;FR10000;October;0.000000;0.000000;0.000000;0.000000;
IT55100;DE18147;August;0.000000;0.000000;0.000000;0.000000;
IT55100;DE18147;September;0.000000;0.000000;0.000000;0.000000;
IT55100;DE18147;October;0.000000;0.000000;0.000000;0.000000;
IT03043;DE59757;August;0.000000;0.000000;0.000000;0.000000;
IT03043;DE59757;September;0.000000;0.000000;0.000000;0.000000;
IT03043;DE59757;October;0.000000;0.000000;0.000000;0.000000;
IT03043;DE34431;August;0.000000;0.000000;0.000000;0.000000;
IT03043;DE34431;September;0.000000;0.000000;0.000000;0.000000;
IT03043;DE34431;October;0.000000;0.000000;0.000000;0.000000;
IT03043;DE09648;August;0.000000;0.000000;0.000000;0.000000;
IT03043;DE09648;September;0.000000;0.000000;0.000000;0.000000;
IT03043;DE09648;October;0.000000;0.000000;0.000000;0.000000;
IT03043;DE06237;August;0.000000;0.000000;0.000000;0.000000;
IT03043;DE06237;September;0.000000;0.000000;0.000000;0.000000;
IT03043;DE06237;October;0.000000;0.000000;0.000000;0.000000;
IT03043;DE55120;August;0.000000;0.000000;0.000000;0.000000;
IT03043;DE55120;September;0.000000;0.000000;0.000000;0.000000;
IT03043;DE55120;October;0.000000;0.000000;0.000000;0.000000;
IT03043;PL58573;August;0.000000;0.000000;0.000000;0.000000;
IT03043;PL58573;September;0.000000;0.000000;0.000000;0.000000;
IT03043;PL58573;October;0.000000;0.000000;0.000000;0.000000;
IT03043;FR59166;August;0.000000;0.000000;0.000000;0.000000;
IT03043;FR59166;September;0.000000;0.000000;0.000000;0.000000;
IT03043;FR59166;October;0.000000;0.000000;0.000000;0.000000;
IT03043;IT55100;August;2365.061800;41736.384706;884.857777;9369.082343;
IT03043;IT55100;September;745.000000;13147.058824;872.921023;9242.693187;
IT03043;IT55100;October;720.500000;12714.705882;603.000000;6384.705882;
IT03043;ES50600;August;0.000000;0.000000;22.500000;1191.176471;
IT03043;ES50600;September;0.000000;0.000000;1.500000;79.411765;
IT03043;ES50600;October;0.000000;0.000000;25.000000;1323.529412;
IT03043;FR10000;August;0.000000;0.000000;0.000000;0.000000;
IT03043;FR10000;September;0.000000;0.000000;0.000000;0.000000;
IT03043;FR10000;October;0.000000;0.000000;0.000000;0.000000;
IT03043;DE18147;August;0.000000;0.000000;0.000000;0.000000;
IT03043;DE18147;September;0.000000;0.000000;0.000000;0.000000;
IT03043;DE18147;October;0.000000;0.000000;0.000000;0.000000;
ES50600;DE59757;August;0.000000;0.000000;0.000000;0.000000;
ES50600;DE59757;September;0.000000;0.000000;0.000000;0.000000;
ES50600;DE59757;October;0.000000;0.000000;0.000000;0.000000;
ES50600;DE34431;August;0.000000;0.000000;0.000000;0.000000;
ES50600;DE34431;September;0.000000;0.000000;0.000000;0.000000;
ES50600;DE34431;October;0.000000;0.000000;0.000000;0.000000;
ES50600;DE09648;August;0.000000;0.000000;0.000000;0.000000;
ES50600;DE09648;September;0.000000;0.000000;0.000000;0.000000;
ES50600;DE09648;October;0.000000;0.000000;0.000000;0.000000;
ES50600;DE06237;August;0.000000;0.000000;0.000000;0.000000;
ES50600;DE06237;September;0.000000;0.000000;0.000000;0.000000;
ES50600;DE06237;October;0.000000;0.000000;0.000000;0.000000;
ES50600;DE55120;August;0.000000;0.000000;0.000000;0.000000;
ES50600;DE55120;September;0.000000;0.000000;0.000000;0.000000;
ES50600;DE55120;October;0.000000;0.000000;0.000000;0.000000;
ES50600;PL58573;August;0.000000;0.000000;0.000000;0.000000;
ES50600;PL58573;September;0.000000;0.000000;0.000000;0.000000;
ES50600;PL58573;October;0.000000;0.000000;0.000000;0.000000;
ES50600;FR59166;August;7013.150404;278463.324874;254.500000;9558.720588;
ES50600;FR59166;September;4358.760498;173068.431535;51.500000;1934.279412;
ES50600;FR59166;October;3748.089098;148821.184767;194.000000;7286.411765;
ES50600;IT55100;August;453.650000;19346.838235;423.857100;19135.901426;
ES50600;IT55100;September;102.850000;4386.250000;0.000000;0.000000;
ES50600;IT55100;October;244.500000;10427.205882;0.000000;0.000000;
ES50600;IT03043;August;22.500000;1191.176471;0.000000;0.000000;
ES50600;IT03043;September;1.500000;79.411765;0.000000;0.000000;
ES50600;IT03043;October;25.000000;1323.529412;0.000000;0.000000;
ES50600;FR10000;August;0.000000;0.000000;51.000000;1747.500000;
ES50600;FR10000;September;0.000000;0.000000;0.000000;0.000000;
ES50600;FR10000;October;0.000000;0.000000;0.000000;0.000000;
ES50600;DE18147;August;0.000000;0.000000;0.000000;0.000000;
ES50600;DE18147;September;0.000000;0.000000;0.000000;0.000000;
ES50600;DE18147;October;0.000000;0.000000;0.000000;0.000000;
FR10000;DE59757;August;0.000000;0.000000;0.000000;0.000000;
FR10000;DE59757;September;0.000000;0.000000;0.000000;0.000000;
FR10000;DE59757;October;0.000000;0.000000;0.000000;0.000000;
FR10000;DE34431;August;0.000000;0.000000;0.000000;0.000000;
FR10000;DE34431;September;0.000000;0.000000;0.000000;0.000000;
FR10000;DE34431;October;0.000000;0.000000;0.000000;0.000000;
FR10000;DE09648;August;0.000000;0.000000;0.000000;0.000000;
FR10000;DE09648;September;0.000000;0.000000;0.000000;0.000000;
FR10000;DE09648;October;0.000000;0.000000;0.000000;0.000000;
FR10000;DE06237;August;0.000000;0.000000;0.000000;0.000000;
FR10000;DE06237;September;0.000000;0.000000;0.000000;0.000000;
FR10000;DE06237;October;0.000000;0.000000;0.000000;0.000000;
FR10000;DE55120;August;0.000000;0.000000;0.000000;0.000000;
FR10000;DE55120;September;0.000000;0.000000;0.000000;0.000000;
FR10000;DE55120;October;0.000000;0.000000;0.000000;0.000000;
FR10000;PL58573;August;0.000000;0.000000;51.000000;1747.500000;
FR10000;PL58573;September;0.000000;0.000000;0.000000;0.000000;
FR10000;PL58573;October;0.000000;0.000000;0.000000;0.000000;
FR10000;FR59166;August;0.000000;0.000000;0.100000;3.426471;
FR10000;FR59166;September;0.000000;0.000000;0.000000;0.000000;
FR10000;FR59166;October;0.000000;0.000000;0.000000;0.000000;
FR10000;IT55100;August;0.000000;0.000000;0.000000;0.000000;
FR10000;IT55100;September;0.000000;0.000000;0.000000;0.000000;
FR10000;IT55100;October;0.000000;0.000000;0.000000;0.000000;
FR10000;IT03043;August;0.000000;0.000000;0.000000;0.000000;
FR10000;IT03043;September;0.000000;0.000000;0.000000;0.000000;
FR10000;IT03043;October;0.000000;0.000000;0.000000;0.000000;
FR10000;ES50600;August;51.000000;1747.500000;0.000000;0.000000;
FR10000;ES50600;September;0.000000;0.000000;0.000000;0.000000;
FR10000;ES50600;October;0.000000;0.000000;0.000000;0.000000;
FR10000;DE18147;August;0.000000;0.000000;0.000000;0.000000;
FR10000;DE18147;September;0.000000;0.000000;0.000000;0.000000;
FR10000;DE18147;October;0.000000;0.000000;0.000000;0.000000;
DE18147;DE59757;August;30.693356;248.149015;0.000000;0.000000;
DE18147;DE59757;September;21.000000;169.780368;0.000000;0.000000;
DE18147;DE59757;October;17.000000;137.441250;0.000000;0.000000;
DE18147;DE34431;August;63.306644;508.835155;0.000000;0.000000;
DE18147;DE34431;September;46.000000;369.730818;0.000000;0.000000;
DE18147;DE34431;October;27.000000;217.015915;0.000000;0.000000;
DE18147;DE09648;August;44.000000;352.929047;0.000000;0.000000;
DE18147;DE09648;September;149.000000;1195.146091;0.000000;0.000000;
DE18147;DE09648;October;166.000000;1331.505041;0.000000;0.000000;
DE18147;DE06237;August;280.000000;1871.002000;0.000000;0.000000;
DE18147;DE06237;September;204.000000;1363.158600;0.000000;0.000000;
DE18147;DE06237;October;340.000000;2271.931000;0.000000;0.000000;
DE18147;DE55120;August;0.000000;0.000000;0.000000;0.000000;
DE18147;DE55120;September;0.000000;0.000000;0.000000;0.000000;
DE18147;DE55120;October;0.000000;0.000000;0.000000;0.000000;
DE18147;PL58573;August;0.000000;0.000000;0.000000;0.000000;
DE18147;PL58573;September;0.000000;0.000000;0.000000;0.000000;
DE18147;PL58573;October;0.000000;0.000000;0.000000;0.000000;
DE18147;FR59166;August;0.000000;0.000000;0.000000;0.000000;
DE18147;FR59166;September;0.000000;0.000000;0.000000;0.000000;
DE18147;FR59166;October;0.000000;0.000000;0.000000;0.000000;
DE18147;IT55100;August;0.000000;0.000000;0.000000;0.000000;
DE18147;IT55100;September;0.000000;0.000000;0.000000;0.000000;
DE18147;IT55100;October;0.000000;0.000000;0.000000;0.000000;
DE18147;IT03043;August;0.000000;0.000000;0.000000;0.000000;
DE18147;IT03043;September;0.000000;0.000000;0.000000;0.000000;
DE18147;IT03043;October;0.000000;0.000000;0.000000;0.000000;
DE18147;ES50600;August;0.000000;0.000000;0.000000;0.000000;
DE18147;ES50600;September;0.000000;0.000000;0.000000;0.000000;
DE18147;ES50600;October;0.000000;0.000000;0.000000;0.000000;
DE18147;FR10000;August;0.000000;0.000000;0.000000;0.000000;
DE18147;FR10000;September;0.000000;0.000000;0.000000;0.000000;
DE18147;FR10000;October;0.000000;0.000000;0.000000;0.000000;
