Werk;Periode;Produktion Paletten;Produktion Tonnen;Produktionskosten;Produktionsschichten;Kundentransporte Paletten;Kundentransportkosten;ausgehende IC-Transporte in Paletten;ausgehende IC-Transportkosten;eingehende IC-Transporte in Paletten;eingehende IC-Transportkosten
DE54456;January;43.637,084311;7.439,698348;601.656,841395;444,392180;27.291,599371;186.134,051694;13.543,886966;54.156,038399;5.786,475389;51.272,762357
DE54456;February;21.913,308317;3.680,974008;313.393,318536;237,661765;21.978,806362;188.358,854902;818,102838;3.479,804970;2.173,000000;17.067,890301
DE54456;March;19.056,202662;3.059,408665;309.350,851627;224,779364;23.524,202719;200.162,146711;1.192,000000;5.001,176471;2.165,644572;15.913,116462
DE18239;January;81.506,105211;11.622,902682;715.646,663343;592,422735;83.328,747828;2.850.782,910385;3.735,000000;17.377,941176;40.617,642617;462.952,309895
DE18239;February;41.656,460891;5.543,936362;401.149,255242;332,077198;66.395,544324;2.076.890,336869;1.413,500000;5.404,558824;20.460,102838;302.245,834382
DE18239;March;35.003,282762;5.000,911057;343.866,039373;284,657317;67.609,049714;1.783.982,177973;1.600,000000;6.966,470588;20.804,280469;300.599,318249
DE86489;January;16.228,022731;3.785,467342;738.335,939433;603,215637;9.557,495363;0,000000;7.145,366396;94.444,800808;0,000000;0,000000
DE86489;February;11.946,189226;2.749,863418;554.403,899218;452,944362;8.585,482986;0,000000;3.433,586743;44.817,721510;0,000000;0,000000
DE86489;March;13.770,475618;3.181,774695;636.654,723062;520,142748;9.729,925082;0,000000;4.521,441837;60.025,298991;0,000000;0,000000
DE17391;January;37.111,908682;4.955,566092;201.858,670574;260,127153;26.880,908682;0,000000;3.271,000000;34.587,529412;0,000000;0,000000
DE17391;February;23.623,263141;3.140,092627;130.664,524196;168,382119;21.535,601773;0,000000;2.087,661368;21.700,223985;0,000000;0,000000
DE17391;March;26.301,768197;3.528,482192;146.851,217779;189,241260;25.144,546697;0,000000;2.212,838632;22.939,746604;0,000000;0,000000
DE99192;January;27.018,674812;4.932,719780;356.832,000000;252,000000;25.211,613034;560.277,844522;1.513,500000;14.791,764706;571,000000;27.116,764706
DE99192;February;23.159,032847;4.234,164377;305.856,000000;216,000000;21.750,013924;484.775,975716;416,500000;3.920,000000;119,000000;5.757,941176
DE99192;March;24.619,180323;4.781,756465;342.672,000000;242,000000;28.531,922724;921.092,147624;236,500000;2.225,882353;45,000000;2.118,529412
PL99198;January;34.760,789583;5.062,501077;520.640,152324;413,708735;27.982,653709;44.506,081782;345,536120;6.478,560140;1.742,910579;22.594,308564
PL99198;February;17.612,301881;2.544,038768;291.069,647435;227,700039;22.681,346291;40.740,863812;0,000000;0,000000;700,748111;7.121,084605
PL99198;March;20.029,360677;2.944,643560;328.747,292832;257,161666;22.264,476526;43.085,317706;0,000000;0,000000;718,500000;7.842,029412
DE24395;January;51.121,050845;6.726,563238;1.100.693,737040;550,346869;17.479,709605;0,000000;18.229,763714;294.893,236553;423,000000;15.887,382353
DE24395;February;42.314,433549;5.685,953292;924.398,593827;462,199297;28.533,657292;0,000000;15.112,500000;244.466,911765;813,000000;30.535,323529
DE24395;March;46.596,942655;6.033,855453;970.559,862924;485,279931;33.305,163948;0,000000;13.871,500000;224.391,911765;352,000000;13.220,705882
DE49393;January;0,000000;0,000000;0,000000;0,000000;2.857,521651;0,000000;441,475389;19.510,495667;0,000000;0,000000
DE49393;February;0,000000;0,000000;0,000000;0,000000;814,500000;0,000000;63,000000;2.734,411765;0,000000;0,000000
DE49393;March;0,000000;0,000000;0,000000;0,000000;1.168,000000;0,000000;29,500000;1.270,735294;0,000000;0,000000
DE73099;January;0,000000;0,000000;0,000000;0,000000;2.545,820882;0,000000;212,855428;11.137,199119;0,000000;0,000000
DE73099;February;0,000000;0,000000;0,000000;0,000000;542,000000;0,000000;98,000000;5.070,588235;0,000000;0,000000
DE73099;March;0,000000;0,000000;0,000000;0,000000;877,099198;0,000000;69,644572;3.651,771469;0,000000;0,000000
DE25495;January;24.037,609374;2.919,741022;288.648,000000;171,000000;18.546,929875;0,000000;702,644572;32.445,961895;0,000000;0,000000
DE25495;February;16.697,217029;2.197,813564;212.688,000000;126,000000;18.103,047048;0,000000;823,000000;31.133,852941;0,000000;0,000000
DE25495;March;16.791,439668;2.208,526231;212.688,000000;126,000000;16.045,613392;0,000000;352,000000;13.220,705882;0,000000;0,000000
