Werk;Maschine;Produkt;Periode;Produktionsschichten;Produktion Tonnen;Produktion Paletten;Produktionskosten
DE54456;M46;"100004";January;1,08235; 9,81688; 58,5; 1.307,47
PL99198;M57;"100005";January;14,151; 135,567; 1.264,5; 17.094,5
DE54456;M48;"100007";January;1,7864; 25,1883; 138,954; 2.157,97
DE99192;M33;"100008";January;1,07159; 17,3704; 81; 1.517,37
DE99192;M32;"100009";January;8,40831; 76,936; 581; 11.906,2
DE25495;M72;"100029";January;1,34907; 25,2545; 86,5; 2.277,23
DE25495;M72;"100037";January;3,62962; 68,0191; 417,5; 6.126,8
DE25495;M73;"100041";January;1,73749; 32,6995; 112; 2.932,88
PL99198;M57;"100042";January;20,1336; 192,88; 1.800,26; 24.321,4
DE25495;M72;"100044";January;7,65749; 136,992; 1.850; 12.925,8
DE25495;M72;"100046";January;18,5318; 320,785; 4.332; 31.281,6
DE18239;M04;"100078";January;9,34627; 84,5838; 723; 11.290,3
DE25495;M72;"100098";January;5,20966; 97,5249; 302; 8.793,91
DE54456;M48;"100099";January;11,6808; 164,699; 892; 14.110,4
DE54456;M46;"100151";January;26,7355; 237,144; 1.542; 32.296,5
DE54456;M46;"100200";January;13,3119; 120,739; 719,5; 16.080,8
DE54456;M48;"100248";January;2,1498; 30,3122; 150,5; 2.596,96
DE25495;M72;"100274";January;2,32122; 43,4996; 534; 3.918,22
DE25495;M72;"100275";January;0,790173; 14,8078; 204,5; 1.333,81
DE25495;M72;"100276";January;1,73104; 32,4397; 448; 2.921,99
DE25495;M72;"100277";January;1,15801; 21,678; 148,5; 1.954,73
DE25495;M73;"100278";January;0,795056; 14,9629; 102,5; 1.342,05
PL99198;M57;"100280";January;5,02708; 48,1594; 449,5; 6.072,71
PL99198;M57;"100281";January;5,23398; 50,1415; 468; 6.322,65
DE24395;M63;"100285";January;5,85164; 59,1016; 564; 11.703,3
DE24395;M63;"100286";January;1,31059; 13,984; 60,5; 2.621,18
DE54456;M48;"100289";January;0,740607; 10,4426; 57,6077; 894,653
DE24395;M67;"100293";January;1,73474; 23,5578; 158; 3.469,48
DE24395;M63;"100294";January;0,730846; 8,25125; 115; 1.461,69
DE24395;M67;"100295";January;2,29271; 31,4102; 199; 4.585,42
DE25495;M72;"100300";January;1,97021; 35,779; 224,672; 3.325,71
DE24395;M63;"100300";January;3,74235; 40,3425; 253,328; 7.484,69
DE24395;M67;"100302";January;4,65253; 59,878; 376; 9.305,05
DE24395;M64;"100311";January;90; 1.196,1; 8.260,93; 180.000
DE24395;M67;"100311";January;62,9127; 832,336; 5.748,57; 125.825
DE24395;M62;"100314";January;6,00244; 50,7206; 317,5; 12.004,9
DE25495;M72;"100317";January;1,15292; 21,5941; 167,5; 1.946,12
DE25495;M71;"100318";January;3,45531; 49,3764; 383; 5.832,56
DE25495;M71;"100319";January;9,10753; 130,147; 1.009,51; 15.373,5
DE25495;M72;"100319";January;1,12872; 21,141; 163,985; 1.905,28
DE24395;M63;"100325";January;6,6604; 67,3366; 659; 13.320,8
DE24395;M63;"100327";January;3,51718; 35,5586; 348; 7.034,35
PL99198;M57;"100329";January;1,07364; 10,2854; 96; 1.296,95
DE25495;M73;"100389";January;0,749455; 14,9891; 53,5; 1.265,08
DE25495;M72;"100390";January;0,863101; 15,4409; 202; 1.456,91
DE25495;M72;"100391";January;1,67279; 29,9263; 391,5; 2.823,67
DE25495;M73;"100392";January;4,5773; 84,3597; 603; 7.726,49
DE25495;M72;"100393";January;3,88065; 71,1711; 508,728; 6.550,53
DE25495;M73;"100393";January;4,80709; 88,5947; 633,272; 8.114,37
DE25495;M73;"100394";January;28,6935; 528,822; 1.890; 48.434,7
DE54456;M46;"100396";January;0,754291; 6,08713; 54,3397; 911,184
PL99198;M58;"100402";January;15,6939; 184,09; 1.126; 18.958,3
PL99198;M58;"100404";January;3,20575; 37,6034; 253; 3.872,54
DE24395;M67;"100406";January;0,782891; 10,6317; 60,5; 1.565,78
DE24395;M67;"100407";January;1,53515; 20,8474; 130,5; 3.070,31
DE54456;M46;"100415";January;0,691383; 6,27776; 34; 835,191
DE54456;M44;"100418";January;13,5945; 146,957; 565; 27.189
DE54456;M44;"100419";January;46,3248; 230,234; 935; 92.649,7
DE54456;M44;"100436";January;7,7163; 57,4865; 254,5; 15.432,6
DE54456;M44;"100466";January;5,53366; 59,8189; 288,896; 11.067,3
DE54456;M44;"100486";January;8,68814; 93,9188; 346,5; 17.376,3
DE54456;M46;"100524";January;3,54567; 31,4501; 204,5; 4.283,16
DE24395;M67;"100526";January;9,77379; 137,419; 696,5; 19.547,6
DE24395;M63;"100530";January;0,621012; 6,94913; 43,5; 1.242,02
DE24395;M63;"100533";January;1,79813; 20,1211; 114,5; 3.596,26
PL99198;M58;"100534";January;9,07445; 106,443; 539,5; 10.961,9
PL99198;M58;"100536";January;10,2836; 120,626; 672,5; 12.422,6
DE24395;M67;"100543";January;1,00036; 13,5849; 76,5; 2.000,72
DE24395;M67;"100548";January;1,54339; 20,9592; 123; 3.086,77
DE24395;M63;"100549";January;0,5; 5,595; 32,8345; 1.000
DE54456;M46;"100553";January;0,865286; 7,8568; 80; 1.045,27
DE54456;M46;"100557";January;4,4212; 40,1445; 303; 5.340,81
DE54456;M46;"100558";January;15,963; 144,944; 1.094; 19.283,3
DE24395;M63;"100559";January;14,5844; 162,179; 1.087,5; 29.168,9
DE99192;M31;"100562";January;14,4691; 351,598; 1.666,5; 20.488,2
DE54456;M46;"100563";January;4,27057; 37,88; 223,798; 5.158,85
DE24395;M63;"100565";January;12,6538; 161,968; 1.405; 25.307,6
DE24395;M63;"100567";January;3,27567; 41,9286; 372,5; 6.551,34
DE24395;M63;"100581";January;9,04877; 115,824; 1.029; 18.097,5
DE24395;M63;"100582";January;10,8075; 138,336; 1.229; 21.615
DE54456;M48;"100584";January;94,5673; 1.994,42; 15.115; 114.237
DE99192;M33;"100586";January;1,05297; 14,2151; 141,5; 1.491
DE99192;M33;"100588";January;0,5; 6,75; 67,1909; 708
DE18239;M02;"100590";January;0,5; 8,48; 50,983; 604
DE18239;M02;"100595";January;3,34395; 42,4013; 384; 4.039,49
DE18239;M06;"100604";January;9,6429; 198,258; 1.340,94; 11.648,6
DE54456;M48;"100605";January;2,2902; 48,4147; 320,5; 2.766,56
DE99192;M32;"100606";January;21,1187; 371,901; 2.487,13; 29.904,1
DE99192;M33;"100606";January;1,7506; 34,5218; 230,869; 2.478,85
DE99192;M32;"100607";January;3,79195; 66,7762; 483,5; 5.369,4
DE18239;M06;"100609";January;0,5; 10,285; 53,7693; 604
DE24395;M68;"100610";January;11,8951; 148,213; 1.361,5; 23.790,2
DE99192;M32;"100614";January;40,9063; 720,361; 4.817,5; 57.923,4
DE18239;M02;"100616";January;1,20712; 20,2554; 170,5; 1.458,2
PL99198;M58;"100624";January;2,73387; 39,4497; 270; 3.302,51
PL99198;M57;"100630";January;5,77484; 83,0422; 631,5; 6.976,01
DE18239;M06;"100632";January;23,3597; 513,679; 3.232,31; 28.218,5
DE18239;M06;"100644";January;6,31791; 140,573; 1.082; 7.632,03
DE18239;M06;"100645";January;4,61553; 102,695; 677,5; 5.575,56
DE18239;M02;"100646";January;23,4387; 430,1; 3.310,5; 28.314
DE18239;M02;"100647";January;9,64652; 170,454; 1.141; 11.653
DE18239;M04;"100648";January;2,46864; 31,722; 311; 2.982,11
PL99198;M57;"100650";January;4,59661; 64,4904; 485; 5.552,71
DE54456;M46;"100651";January;1,88993; 25,155; 109; 2.283,04
DE18239;M01;"100660";January;20,1935; 308,96; 2.026,5; 24.393,7
PL99198;M58;"100660";January;4,48699; 70,1316; 460; 5.420,28
DE18239;M01;"100726";January;3,2997; 50,4854; 458,5; 3.986,04
DE54456;M48;"100727";January;0,5; 10,57; 62,1984; 604
DE18239;M01;"100754";January;9,76879; 149,462; 687,5; 11.800,7
PL99198;M58;"100779";January;25,5999; 312,319; 2.042,5; 30.924,7
DE25495;M72;"100780";January;0,296838; 6,41466; 63; 501,062
DE24395;M68;"100782";January;2,67147; 32,5652; 174,5; 5.342,94
DE18239;M02;"100783";January;0,5; 8,475; 60,8312; 604
DE18239;M06;"100784";January;0,638038; 12,9841; 96,5; 770,75
DE24395;M68;"100785";January;1,36906; 17,2912; 107; 2.738,12
DE24395;M68;"100787";January;1,30392; 15,7383; 97,3906; 2.607,84
DE24395;M66;"100788";January;2,91341; 32,1349; 290; 5.826,82
DE18239;M01;"100790";January;0,5; 7,565; 34,7976; 604
DE18239;M02;"100791";January;2,84678; 39,5703; 327; 3.438,91
PL99198;M57;"100792";January;1,82436; 26,2342; 199,5; 2.203,82
DE18239;M02;"100793";January;2,22133; 37,6737; 226,5; 2.683,37
DE17391;M22;"100847";January;0,5; 9,415; 61,0927; 388
DE17391;M23;"100849";January;45,6185; 775,97; 5.875; 35.399,9
DE17391;M22;"100850";January;1,94259; 11,7527; 91; 1.507,45
DE17391;M22;"100851";January;1,41984; 26,7497; 202,527; 1.101,79
DE17391;M23;"100851";January;32,6121; 554,732; 4.199,97; 25.307
DE17391;M22;"100853";January;9,81529; 184,92; 1.200; 7.616,66
DE24395;M68;"100879";January;1,87084; 22,581; 121; 3.741,68
DE24395;M66;"100880";January;17,5523; 193,602; 1.248; 35.104,7
DE24395;M66;"100881";January;31,5541; 348,042; 2.243,55; 63.108,3
DE24395;M68;"100881";January;12,5948; 152,019; 979,949; 25.189,6
DE24395;M68;"100885";January;13,6779; 157,295; 1.619,1; 27.355,7
DE24395;M63;"100886";January;0,5; 6,37; 65,5687; 1.000
DE24395;M68;"100886";January;3,03944; 25,8352; 265,931; 6.078,88
DE24395;M68;"100887";January;12,6871; 145,901; 1.501,81; 25.374,1
DE24395;M63;"100888";January;5,85645; 74,6112; 768; 11.712,9
DE18239;M02;"100889";January;5,63389; 101,185; 583,5; 6.805,74
DE18239;M02;"100890";January;0,5; 8,715; 51,5467; 604
DE18239;M02;"100891";January;5,05852; 88,17; 521,5; 6.110,69
DE17391;M23;"100892";January;0,5; 6,66; 45,5572; 388
DE54456;M48;"100909";January;1,13882; 24,0861; 154,616; 1.375,69
DE54456;M48;"100917";January;98,478; 2.307,34; 10.952,4; 118.961
DE99192;M31;"100917";January;60,7088; 1.369,59; 6.501,11; 85.963,6
DE17391;M23;"100942";January;6,04684; 115,132; 795; 4.692,35
DE54456;M46;"100943";January;5,96885; 71,3277; 615; 7.210,36
DE25495;M73;"100944";January;4,48405; 103,357; 1.015; 7.569,08
DE25495;M72;"100945";January;2,10163; 45,4162; 446; 3.547,55
DE25495;M73;"100946";January;2,2155; 29,7098; 301,5; 3.739,76
DE54456;M48;"100947";January;12,7935; 299,496; 1.636,5; 15.454,5
DE99192;M33;"100950";January;0,5; 6,35; 44,8383; 708
DE99192;M31;"100952";January;8,82219; 187,383; 1.107,92; 12.492,2
DE99192;M33;"100953";January;0,976085; 19,3558; 103; 1.382,14
DE54456;M48;"100954";January;2,10457; 44,4906; 261,802; 2.542,32
DE18239;M06;"100957";January;5,55907; 123,689; 816; 6.715,36
DE18239;M06;"100958";January;17,0395; 243,665; 1.607,5; 20.583,7
DE18239;M06;"100961";January;0,962535; 20,2229; 119; 1.162,74
DE18239;M02;"100964";January;6,77128; 114,841; 753,5; 8.179,71
DE18239;M01;"100967";January;4,64895; 84,3784; 959,5; 5.615,93
DE17391;M23;"100968";January;8,22256; 107,551; 1.274; 6.380,71
DE18239;M01;"100969";January;1,23314; 22,6282; 221; 1.489,64
DE18239;M01;"100970";January;4,94203; 90,6862; 744; 5.969,97
DE54456;M48;"100971";January;1,74544; 36,8986; 236; 2.108,49
DE54456;M46;"100986";January;0,5; 6,805; 48,9639; 604
DE54456;M48;"100987";January;5,89243; 124,566; 733; 7.118,06
DE18239;M06;"101029";January;0,613656; 12,899; 66; 741,296
DE99192;M33;"101038";January;19,1604; 379,951; 2.246,5; 27.131,1
DE54456;M48;"101039";January;8,70403; 184,09; 1.181,73; 10.514,5
PL99198;M57;"101041";January;1,45857; 20,9742; 159,5; 1.761,95
DE24395;M66;"101045";January;32,4546; 541,019; 3.440,5; 64.909,3
DE24395;M63;"101046";January;8,54124; 119,492; 461,733; 17.082,5
DE24395;M67;"101046";January;3,77171; 63,2138; 244,267; 7.543,41
DE24395;M68;"101048";January;5,0092; 49,9417; 255; 10.018,4
DE25495;M73;"101052";January;6,2315; 110,858; 545; 10.518,8
DE25495;M72;"101053";January;0,308304; 6,66246; 29; 520,418
DE18239;M02;"101054";January;0,796999; 10,7595; 91,5; 962,775
DE18239;M02;"101055";January;0,5; 6,75; 57,4028; 604
DE99192;M32;"101057";January;0,644803; 7,71829; 54,5; 913,041
DE24395;M68;"101062";January;1,15421; 11,496; 57,5; 2.308,43
PL99198;M57;"101065";January;1,18945; 17,1042; 117; 1.436,85
DE24395;M68;"101067";January;1,195; 14,4237; 71; 2.390
DE24395;M68;"101069";January;0,803289; 9,6957; 52,5; 1.606,58
DE24395;M68;"101070";January;1,39903; 16,8863; 95; 2.798,05
DE24395;M68;"101071";January;5,48036; 66,1479; 385,5; 10.960,7
PL99198;M58;"101074";January;17,929; 190,047; 1.300; 21.658,2
DE99192;M32;"101075";January;9,12987; 160,777; 1.075; 12.927,9
DE99192;M33;"101076";January;2,36173; 46,5733; 249,108; 3.344,21
DE25495;M72;"101079";January;1,2468; 26,4447; 273,5; 2.104,61
DE18239;M01;"101080";January;7,42211; 117,269; 823; 8.965,9
DE99192;M33;"101081";January;53,22; 1.028,74; 4.681; 75.359,6
DE18239;M06;"101083";January;29,0327; 683,43; 4.142,5; 35.071,5
DE18239;M06;"101085";January;13,6315; 320,886; 1.945; 16.466,9
DE54456;M48;"101087";January;37,9629; 800,637; 4.267,79; 45.859,2
PL99198;M502;"101088";January;0,541671; 9,53883; 72,5; 654,338
PL99198;M58;"101089";January;0,589583; 6,24958; 47,5; 712,216
DE17391;M22;"101091";January;31,5919; 665,957; 6.035,5; 24.515,3
DE17391;M22;"101092";January;1,87651; 39,5569; 358,5; 1.456,17
PL99198;M502;"101093";January;104,81; 1.845,71; 12.625,4; 126.611
PL99198;M502;"101094";January;62,7596; 1.105,2; 7.560; 75.813,6
DE99192;M33;"101097";January;3,4066; 65,8496; 399,5; 4.823,75
DE24395;M66;"101107";January;5,52549; 74,4837; 501; 11.051
DE18239;M04;"101109";January;0,5; 8,235; 65,0063; 604
DE17391;M22;"101112";January;13,615; 287,821; 2.142; 10.565,2
DE17391;M22;"101113";January;1,16057; 24,5345; 156,5; 900,604
DE17391;M22;"101114";January;1,88517; 39,1738; 246,5; 1.462,89
DE18239;M04;"101117";January;21,0067; 383,372; 2.818,5; 25.376,1
DE18239;M06;"101122";January;19,4263; 459,82; 2.771; 23.466,9
DE18239;M02;"101123";January;1,19609; 20,788; 154,5; 1.444,87
DE17391;M22;"101126";January;22,547; 486,563; 3.470; 17.496,4
DE17391;M22;"101127";January;24,7881; 534,928; 3.814,92; 19.235,6
DE17391;M22;"101128";January;1,41758; 30,5913; 187; 1.100,04
DE17391;M22;"101129";January;6,62785; 85,4329; 498,5; 5.143,21
DE25495;M73;"101132";January;1,20901; 16,7085; 94; 2.040,81
DE18239;M06;"101133";January;5,60259; 130,708; 799; 6.767,93
DE25495;M73;"101135";January;0,5; 7,16; 67,9833; 844
DE18239;M04;"101136";January;10,9463; 40,5014; 291; 13.223,2
DE18239;M02;"101137";January;21,3949; 446,939; 3.210,54; 25.845
DE18239;M06;"101137";January;9,00316; 213,195; 1.531,46; 10.875,8
DE18239;M06;"101139";January;12,4804; 295,537; 1.819,7; 15.076,4
DE18239;M04;"101140";January;4,4011; 16,2841; 117; 5.316,53
DE17391;M22;"101146";January;10,0516; 210,279; 1.355,5; 7.800,01
DE18239;M04;"101147";January;12,4826; 230,054; 1.416,5; 15.078,9
DE17391;M22;"101148";January;11,8922; 275,186; 1.577; 9.228,38
DE18239;M06;"101151";January;31,7272; 793,815; 4.526; 38.326,5
DE18239;M02;"101156";January;2,44395; 40,4473; 240,5; 2.952,29
DE17391;M22;"101211";January;6,02427; 130,004; 1.430,5; 4.674,84
DE24395;M68;"101221";January;2,56269; 20,604; 127,5; 5.125,37
DE24395;M68;"101222";January;0,994925; 7,9992; 45; 1.989,85
DE24395;M68;"101225";January;5,83891; 46,9448; 290,5; 11.677,8
DE24395;M68;"101226";January;0,844179; 6,7872; 42; 1.688,36
DE18239;M04;"101228";January;26,8484; 537,505; 3.508,06; 32.432,9
DE18239;M06;"101228";January;21,9282; 563,994; 3.680,94; 26.489,3
DE18239;M06;"101230";January;3,61602; 92,9317; 607; 4.368,15
DE24395;M68;"101235";January;3,60865; 29,0136; 171; 7.217,31
DE18239;M06;"101236";January;81,5491; 2.040,36; 11.693,3; 98.511,4
DE17391;M22;"101239";January;5,61809; 130,002; 745; 4.359,63
DE17391;M22;"101247";January;0,839053; 23,3844; 166; 651,105
DE17391;M22;"101248";January;0,396802; 8,49156; 44; 307,918
DE17391;M22;"101249";January;4,58475; 30,6261; 190; 3.557,76
DE17391;M22;"101250";January;4,96163; 93,0802; 552,339; 3.850,22
DE17391;M22;"101251";January;3,5714; 67,071; 398; 2.771,41
DE86489;M12;"101252";January;48,6269; 224,656; 1.178,93; 59.519,3
DE86489;M13;"101252";January;13,9421; 48,7975; 256,074; 17.065,2
PL99198;M503;"101253";January;90; 329,4; 1.728,59; 129.600
DE86489;M12;"101253";January;6,24911; 28,8709; 151,506; 7.648,91
DE86489;M18;"101253";January;38,6077; 87,6395; 459,905; 47.255,8
DE86489;M13;"101254";January;5,19285; 19,6809; 170; 6.356,05
DE86489;M13;"101270";January;6,37238; 24,1513; 208,615; 7.799,79
DE86489;M12;"101273";January;1,40239; 6,47904; 34; 1.716,52
DE86489;M12;"101281";January;1,03117; 4,764; 25; 1.262,15
DE86489;M18;"101294";January;8,02744; 18,2223; 102; 9.825,59
DE86489;M15;"101301";January;1,23339; 8,53504; 32; 1.509,67
DE86489;M12;"101306";January;17,2946; 106,535; 349,5; 21.168,6
DE86489;M13;"101311";January;0,5; 2,485; 10,5749; 612
DE86489;M16;"101331";January;145,496; 1.147,96; 4.304; 178.087
DE86489;M12;"101333";January;12,5773; 77,4761; 305; 15.394,6
DE86489;M14;"101334";January;22,8768; 156,019; 614,201; 28.001,1
DE86489;M15;"101334";January;6,04944; 41,8621; 164,799; 7.404,52
DE86489;M13;"101349";January;13,1827; 66,4411; 279; 16.135,7
DE86489;M15;"101350";January;35,0937; 242,849; 910,5; 42.954,7
DE86489;M16;"101351";January;68,7323; 542,298; 2.033,21; 84.128,3
DE86489;M16;"101368";January;0,664015; 5,23908; 22; 812,755
DE86489;M15;"101379";January;6,43674; 44,5422; 167; 7.878,57
DE86489;M13;"101380";January;7,55612; 38,0829; 159,918; 9.248,7
DE86489;M15;"101385";January;10,6572; 73,7481; 276,5; 13.044,5
DE86489;M12;"101386";January;0,5; 2,03; 19,9783; 612
DE86489;M14;"101387";January;43,3042; 295,335; 2.214,57; 53.004,4
DE86489;M15;"101392";January;10,4067; 72,0144; 270; 12.737,8
DE86489;M18;"101396";January;21,8648; 64,5013; 193,5; 26.762,6
DE86489;M15;"101403";January;4,54812; 31,473; 118; 5.566,89
DE86489;M14;"101405";January;23,819; 162,446; 639,5; 29.154,5
DE86489;M15;"101406";January;19,2167; 132,979; 523,5; 23.521,2
DE86489;M13;"101409";January;1,25375; 5,84246; 23; 1.534,59
DE86489;M18;"101413";January;0,5; 1,51; 11,7491; 612
DE25495;M71;"101432";January;1,53406; 28,1501; 342,5; 2.589,5
DE25495;M71;"101435";January;0,478052; 7,86396; 52; 806,952
DE25495;M71;"101436";January;3,13198; 39,9327; 393; 5.286,78
DE25495;M73;"101439";January;0,5; 7,93; 45,8832; 844
PL99198;M57;"101441";January;0,578025; 4,20224; 64; 698,254
DE25495;M73;"101457";January;0,5; 2,26; 27,6791; 844
DE25495;M71;"101464";January;3,0099; 54,7199; 374; 5.080,71
DE25495;M71;"101466";January;1,07324; 19,5115; 149; 1.811,63
DE24395;M61;"101467";January;1,13256; 13,1037; 101; 2.265,12
DE25495;M71;"101472";January;0,747749; 13,5941; 223; 1.262,2
DE25495;M71;"101473";January;0,213283; 3,87748; 53; 360,021
DE25495;M71;"101474";January;0,5; 5,765; 125,517; 844
DE25495;M71;"101475";January;0,334616; 3,85812; 84; 564,831
DE25495;M71;"101478";January;2,00869; 36,518; 299,5; 3.390,67
DE25495;M71;"101479";January;7,83814; 142,497; 1.113; 13.230,8
DE25495;M71;"101480";January;2,3451; 42,634; 388,5; 3.958,54
DE24395;M61;"101481";January;26,3893; 294,768; 2.567,44; 52.778,6
DE24395;M62;"101481";January;3,84443; 30,9476; 269,555; 7.688,86
DE18239;M03;"101484";January;0,890111; 14,5711; 218; 1.075,25
DE24395;M61;"101485";January;5,38481; 64,0792; 926; 10.769,6
DE18239;M03;"101486";January;40,8888; 476,763; 6.226,5; 49.393,6
DE24395;M61;"101497";January;1,55165; 12,6304; 241,5; 3.103,3
DE24395;M61;"101498";January;2,3046; 28,1622; 338; 4.609,19
DE24395;M61;"101499";January;6,81376; 92,054; 999,5; 13.627,5
PL99198;M57;"101502";January;4,95877; 52,6126; 328,5; 5.990,2
DE25495;M71;"101504";January;1,49562; 27,1904; 223; 2.524,61
DE18239;M03;"101508";January;0,678772; 6,1904; 80; 819,956
DE24395;M61;"101518";January;3,04917; 23,997; 475; 6.098,35
DE18239;M03;"101520";January;7,92526; 129,736; 1.941; 9.573,71
DE18239;M03;"101521";January;1,71881; 15,6755; 202,5; 2.076,32
DE24395;M61;"101522";January;3,53019; 40,7384; 628; 7.060,37
DE24395;M61;"101524";January;3,71007; 42,8142; 660; 7.420,14
DE18239;M03;"101526";January;15,0667; 246,642; 3.690,04; 18.200,6
DE25495;M71;"101545";January;3,50844; 41,4347; 768,875; 5.922,24
DE24395;M61;"101545";January;1,34817; 9,86862; 183,125; 2.696,34
DE25495;M71;"101547";January;16,2183; 189,267; 1.772; 27.376,5
DE24395;M61;"101552";January;1,04797; 7,68162; 102; 2.095,94
DE24395;M61;"101554";January;0,5; 3,665; 48,6655; 1.000
DE24395;M61;"101556";January;1,3562; 9,94092; 132; 2.712,39
DE24395;M61;"101566";January;13,9944; 161,916; 1.248; 27.988,9
DE24395;M61;"101567";January;0,821813; 10,0426; 66; 1.643,63
DE24395;M61;"101568";January;6,41006; 49,9985; 623,5; 12.820,1
DE24395;M61;"101569";January;3,47627; 27,1149; 270,5; 6.952,54
DE24395;M61;"101571";January;2,68244; 30,2042; 224,5; 5.364,87
DE24395;M61;"101572";January;2,29885; 25,885; 240,5; 4.597,69
DE24395;M61;"101573";January;0,5; 3,9; 38,9066; 1.000
DE24395;M62;"101574";January;0,5; 2,81; 35,0418; 1.000
DE24395;M61;"101576";January;1,19771; 9,34214; 116,5; 2.395,42
DE24395;M61;"101579";January;0,5; 5,63; 41,8463; 1.000
DE54456;M46;"100004";February;3,42281; 31,0448; 185; 4.134,75
PL99198;M57;"100005";February;11,6722; 111,82; 1.043; 14.100,1
DE99192;M33;"100008";February;2,26224; 36,6709; 171; 3.203,34
DE99192;M32;"100009";February;6,74401; 61,7077; 466; 9.549,52
DE25495;M72;"100029";February;1,73117; 32,4076; 111; 2.922,22
DE25495;M72;"100037";February;3,05149; 57,1849; 351; 5.150,91
PL99198;M58;"100039";February;3,96174; 38,112; 237; 4.785,79
DE25495;M73;"100041";February;1,21004; 22,7729; 78; 2.042,54
PL99198;M57;"100042";February;9,08383; 87,0231; 812,237; 10.973,3
DE25495;M72;"100044";February;5,38094; 96,265; 1.300; 9.083,03
DE25495;M72;"100046";February;7,3824; 127,789; 1.725,72; 12.461,5
DE24395;M64;"100046";February;8,46283; 86,067; 1.162,28; 16.925,7
DE18239;M04;"100076";February;0,588431; 5,49594; 45,5; 710,825
DE18239;M04;"100078";February;9,32818; 84,42; 721,601; 11.268,4
DE25495;M72;"100098";February;3,90725; 73,1436; 226,5; 6.595,43
DE54456;M46;"100099";February;0,5; 4,54; 24,5884; 604
DE54456;M48;"100099";February;8,71359; 122,862; 665,412; 10.526
DE54456;M46;"100151";February;20,9706; 186,009; 1.209,5; 25.332,5
DE54456;M46;"100200";February;14,4022; 130,628; 778,427; 17.397,8
DE54456;M48;"100248";February;2,2855; 32,2256; 160; 2.760,89
DE25495;M72;"100274";February;1,767; 33,1135; 406,5; 2.982,69
DE25495;M72;"100275";February;0,761194; 14,2648; 197; 1.284,89
DE25495;M72;"100276";February;0,63948; 11,9839; 165,5; 1.079,44
DE25495;M72;"100277";February;0,694029; 12,9922; 89; 1.171,52
DE25495;M73;"100278";February;0,690341; 12,9922; 89; 1.165,3
PL99198;M57;"100281";February;7,05133; 67,5518; 630,5; 8.518,01
DE54456;M46;"100282";February;0,5; 4,535; 27,0246; 604
DE24395;M63;"100286";February;1,54888; 16,5265; 71,5; 3.097,75
DE54456;M48;"100289";February;0,5; 7,05; 38,8923; 604
DE24395;M67;"100293";February;2,71191; 36,8277; 247; 5.423,81
DE24395;M67;"100295";February;2,24087; 30,6999; 194,5; 4.481,73
DE24395;M63;"100300";February;4,01017; 43,2297; 271,458; 8.020,35
DE24395;M64;"100300";February;1,76231; 22,3813; 140,542; 3.524,62
DE24395;M67;"100302";February;4,75152; 61,152; 384; 9.503,03
DE54456;M46;"100308";February;1,04029; 9,2274; 60; 1.256,67
DE24395;M64;"100311";February;40,1032; 532,971; 3.681; 80.206,4
DE24395;M67;"100311";February;37,1825; 491,925; 3.397,5; 74.365
DE24395;M67;"100314";February;4,32901; 58,788; 368; 8.658,03
DE25495;M71;"100317";February;1,84945; 26,4286; 205; 3.121,87
DE25495;M71;"100318";February;5,07019; 72,453; 562; 8.558,48
DE25495;M71;"100319";February;7,81279; 111,645; 866; 13.188
DE25495;M73;"100320";February;2,10981; 39,7066; 136; 3.561,35
DE24395;M63;"100325";February;4,40152; 44,4994; 435,5; 8.803,04
DE24395;M63;"100327";February;3,75469; 37,9599; 371,5; 7.509,37
PL99198;M57;"100329";February;5,91059; 56,6235; 528,5; 7.140
DE25495;M73;"100389";February;3,41107; 68,2214; 243,5; 5.757,89
DE25495;M72;"100390";February;1,33311; 23,8493; 312; 2.250,28
DE25495;M72;"100391";February;1,79884; 32,1812; 421; 3.036,44
DE25495;M73;"100392";February;4,10667; 75,6859; 541; 6.932,06
DE25495;M72;"100393";February;9,42681; 172,888; 1.235,8; 15.912,5
DE25495;M73;"100393";February;1,66396; 30,6667; 219,205; 2.808,76
DE25495;M71;"100394";February;5,94174; 83,1249; 297,087; 10.029,7
DE25495;M73;"100394";February;13,1613; 242,562; 866,913; 22.216,2
DE54456;M46;"100396";February;1,86923; 15,0846; 134,66; 2.258,02
PL99198;M58;"100404";February;3,82662; 44,8863; 302; 4.622,56
DE24395;M67;"100406";February;1,70813; 23,1964; 132; 3.416,25
DE24395;M67;"100407";February;2,72916; 37,062; 232; 5.458,32
DE24395;M67;"100408";February;1,24106; 16,8536; 105,5; 2.482,12
DE54456;M46;"100412";February;0,5; 4,435; 28,823; 604
DE54456;M44;"100417";February;0,5; 5,405; 20,7805; 1.000
DE54456;M44;"100419";February;32,2044; 160,056; 650; 64.408,9
DE54456;M44;"100466";February;0,5; 5,405; 26,1035; 1.000
DE54456;M46;"100524";February;3,48498; 30,9118; 201; 4.209,86
DE24395;M67;"100526";February;8,57399; 120,55; 611; 17.148
DE24395;M63;"100530";February;1,73455; 19,4096; 121,5; 3.469,1
DE24395;M63;"100531";February;0,5; 5,595; 31,8386; 1.000
DE24395;M63;"100532";February;0,735221; 8,22713; 51,5; 1.470,44
DE24395;M63;"100533";February;1,81384; 20,2968; 115,5; 3.627,67
PL99198;M58;"100534";February;6,94671; 81,4849; 413; 8.391,62
DE24395;M63;"100539";February;0,506803; 5,67113; 35,5; 1.013,61
DE24395;M67;"100543";February;1,86341; 25,3052; 142,5; 3.726,83
DE24395;M67;"100548";February;2,62878; 35,6988; 209,5; 5.257,56
DE24395;M67;"100549";February;1,21922; 16,557; 97,1655; 2.438,44
DE54456;M46;"100553";February;1,42772; 12,9637; 132; 1.724,69
DE54456;M46;"100557";February;6,4494; 58,5606; 442; 7.790,88
DE54456;M46;"100558";February;10,98; 99,6987; 752,5; 13.263,9
DE24395;M63;"100559";February;11,3323; 126,015; 845; 22.664,5
DE99192;M31;"100562";February;19,4685; 473,085; 2.242,32; 27.567,4
DE54456;M46;"100563";February;0,5; 4,435; 26,2023; 604
DE24395;M63;"100564";February;7,38163; 94,4848; 983,5; 14.763,3
DE24395;M63;"100567";February;2,77003; 35,4564; 315; 5.540,06
DE24395;M63;"100568";February;11,9701; 121,018; 769; 23.940,2
DE24395;M63;"100581";February;7,43951; 95,2258; 846; 14.879
DE24395;M63;"100582";February;7,43951; 95,2258; 846; 14.879
DE54456;M48;"100584";February;41,9437; 884,593; 6.704; 50.668
DE99192;M33;"100586";February;1,66689; 22,503; 224; 2.360,32
DE99192;M33;"100588";February;0,828304; 11,1821; 111,309; 1.172,88
DE18239;M02;"100590";February;0,5; 8,48; 50,983; 604
DE18239;M02;"100594";February;0,519148; 9,25122; 66; 627,131
DE18239;M02;"100595";February;4,75032; 60,2341; 545,5; 5.738,39
DE18239;M06;"100604";February;0,5; 10,28; 69,5299; 604
DE99192;M32;"100606";February;16,3923; 288,668; 1.930,5; 23.211,4
DE99192;M32;"100607";February;3,31354; 58,3515; 422,5; 4.691,98
DE24395;M68;"100610";February;0,5; 6,23; 57,2295; 1.000
DE99192;M32;"100614";February;33,8845; 596,705; 3.990,54; 47.980,4
DE18239;M02;"100616";February;1,53633; 25,7796; 217; 1.855,89
DE18239;M02;"100621";February;1,56525; 25,2945; 182,5; 1.890,83
DE99192;M32;"100623";February;0,576484; 9,66763; 83,5; 816,301
PL99198;M58;"100624";February;3,55403; 51,2846; 351; 4.293,26
DE25495;M72;"100631";February;0,865534; 18,7042; 82; 1.461,02
DE18239;M06;"100632";February;0,5; 10,995; 69,1858; 604
DE18239;M06;"100644";February;9,09364; 202,334; 1.557,37; 10.985,1
DE18239;M06;"100645";February;4,00921; 89,2048; 588,5; 4.843,12
DE18239;M02;"100646";February;16,3869; 300,7; 2.314,5; 19.795,4
DE18239;M02;"100647";February;8,92366; 157,681; 1.055,5; 10.779,8
DE18239;M04;"100648";February;1,88918; 24,276; 238; 2.282,13
PL99198;M57;"100650";February;3,69624; 51,8583; 390; 4.465,06
DE54456;M46;"100651";February;2,80889; 37,3864; 162; 3.393,14
DE54456;M48;"100727";February;2,84254; 60,0913; 353,603; 3.433,79
DE18239;M01;"100742";February;0,635968; 9,7303; 58,5; 768,249
DE18239;M01;"100754";February;8,43313; 129,027; 593,5; 10.187,2
DE18239;M01;"100775";February;1,04629; 16,0083; 105; 1.263,92
PL99198;M58;"100779";February;12,6276; 154,057; 1.007,5; 15.254,2
DE25495;M72;"100780";February;0,365157; 7,89105; 77,5; 616,386
DE24395;M64;"100782";February;2,13329; 35,1779; 188,5; 4.266,57
DE18239;M02;"100783";February;1,64528; 27,8875; 200,169; 1.987,5
DE18239;M06;"100784";February;0,938875; 19,1061; 142; 1.134,16
DE24395;M68;"100785";February;4,41965; 55,8202; 345,422; 8.839,3
DE24395;M64;"100787";February;0,565495; 9,22889; 57,1094; 1.130,99
DE24395;M66;"100788";February;3,41572; 37,6754; 340; 6.831,44
DE18239;M02;"100791";February;2,52181; 35,0531; 289,671; 3.046,34
DE18239;M02;"100793";February;2,61362; 44,3269; 266,5; 3.157,25
DE17391;M22;"100847";February;1,50106; 28,2649; 183,407; 1.164,82
DE17391;M23;"100849";February;29,7782; 506,527; 3.835; 23.107,9
DE17391;M22;"100850";February;3,49025; 21,116; 163,5; 2.708,44
DE17391;M23;"100851";February;23,2169; 394,919; 2.990; 18.016,3
DE17391;M23;"100853";February;7,71406; 131,216; 851,5; 5.986,11
DE24395;M64;"100879";February;0,5; 8,16; 43,7252; 1.000
DE24395;M68;"100879";February;2,16112; 26,0848; 139,775; 4.322,25
DE24395;M66;"100880";February;8,69881; 95,9479; 618,5; 17.397,6
DE24395;M66;"100881";February;32,7455; 361,183; 2.328,26; 65.491
DE24395;M68;"100881";February;44,2608; 534,228; 3.443,74; 88.521,6
DE24395;M68;"100885";February;0,5; 5,75; 59,1868; 1.000
DE24395;M64;"100886";February;2,30586; 34,634; 356,5; 4.611,71
DE24395;M68;"100887";February;0,5; 5,75; 59,1868; 1.000
DE24395;M64;"100888";February;5,19707; 78,06; 803,5; 10.394,1
DE18239;M02;"100889";February;4,25318; 76,3871; 440,5; 5.137,84
DE18239;M02;"100890";February;1,64854; 28,734; 169,953; 1.991,43
DE18239;M02;"100891";February;5,38832; 93,9184; 555,5; 6.509,09
DE54456;M48;"100909";February;0,5; 10,575; 67,8842; 604
DE17391;M22;"100915";February;2,92516; 50,6053; 327,5; 2.269,93
DE18239;M02;"100916";February;1,81869; 30,8449; 185,5; 2.196,97
DE54456;M48;"100917";February;54,4757; 1.276,37; 6.058,6; 65.806,7
DE99192;M31;"100917";February;52,5315; 1.185,11; 5.625,44; 74.384,6
DE99192;M32;"100917";February;0,688725; 12,948; 61,4612; 975,235
DE17391;M23;"100942";February;4,03123; 76,7546; 530; 3.128,23
DE54456;M46;"100943";February;5,14388; 61,4694; 530; 6.213,81
DE25495;M73;"100944";February;3,30892; 76,2707; 749; 5.585,46
DE25495;M72;"100945";February;1,73408; 37,4734; 368; 2.927,12
DE25495;M73;"100946";February;2,22652; 29,8576; 303; 3.758,36
DE54456;M48;"100947";February;8,64626; 202,409; 1.106; 10.444,7
DE18239;M06;"100951";February;2,85733; 40,8598; 314,5; 3.451,66
DE99192;M33;"100952";February;7,02427; 139,291; 823,576; 9.946,37
DE99192;M33;"100953";February;1,51151; 29,9732; 159,5; 2.140,3
DE54456;M48;"100954";February;0,5; 10,57; 62,1984; 604
DE24395;M64;"100955";February;5,94275; 89,2601; 862,5; 11.885,5
DE24395;M64;"100956";February;5,39988; 81,1061; 782,5; 10.799,8
DE18239;M06;"100957";February;4,44862; 98,9817; 653; 5.373,93
DE18239;M06;"100958";February;12,6988; 181,593; 1.198; 15.340,2
DE18239;M06;"100961";February;1,20115; 25,2361; 148,5; 1.450,99
DE18239;M02;"100964";February;5,65696; 95,9421; 629,5; 6.833,61
DE18239;M01;"100966";February;0,258653; 4,69456; 52; 312,453
DE18239;M01;"100967";February;1,97683; 35,8795; 408; 2.388,01
DE17391;M23;"100968";February;4,36944; 57,1523; 677; 3.390,69
DE18239;M01;"100970";February;0,584541; 10,7263; 88; 706,125
DE54456;M48;"100971";February;2,98718; 63,149; 403,895; 3.608,52
DE54456;M48;"100987";February;5,56284; 117,598; 692; 6.719,91
DE54456;M48;"101028";February;0,5; 10,57; 86,117; 604
DE99192;M33;"101038";February;14,8106; 293,694; 1.736,5; 20.971,8
DE54456;M48;"101039";February;0,5; 10,575; 67,8842; 604
DE18239;M01;"101042";February;0,5; 7,565; 34,9584; 604
DE24395;M63;"101044";February;0,711529; 8,70912; 64; 1.423,06
DE24395;M66;"101045";February;24,3704; 406,255; 2.583,5; 48.740,9
DE24395;M67;"101046";February;9,82043; 164,59; 636; 19.640,9
DE24395;M64;"101048";February;3,02494; 49,9417; 255; 6.049,88
DE25495;M73;"101052";February;5,83132; 103,739; 510; 9.843,26
DE25495;M72;"101053";February;0,345514; 7,46655; 32,5; 583,227
DE18239;M02;"101054";February;1,78563; 24,1059; 205; 2.157,04
DE18239;M02;"101055";February;0,945921; 12,7699; 108,597; 1.142,67
DE18239;M02;"101056";February;0,749092; 10,1127; 86; 904,903
DE99192;M32;"101057";February;3,22401; 38,5914; 272,5; 4.565,2
DE24395;M68;"101067";February;2,56673; 30,9804; 152,5; 5.133,45
DE24395;M68;"101069";February;2,98365; 36,0126; 195; 5.967,29
DE24395;M64;"101070";February;1,29629; 21,1555; 119,018; 2.592,59
DE24395;M68;"101070";February;0,920142; 11,1061; 62,4816; 1.840,28
DE24395;M64;"101071";February;3,8061; 62,1156; 362; 7.612,2
DE17391;M23;"101072";February;0,634156; 10,787; 70; 492,105
DE17391;M23;"101073";February;0,5; 8,505; 55,1914; 388
DE99192;M32;"101075";February;7,1765; 126,378; 845; 10.161,9
DE99192;M33;"101076";February;2,88112; 56,8156; 303,892; 4.079,66
DE25495;M72;"101079";February;0,816007; 17,3075; 179; 1.377,42
DE18239;M01;"101080";February;9,37909; 148,19; 1.040; 11.329,9
DE99192;M33;"101081";February;38,2182; 738,757; 3.361,5; 54.116,9
DE18239;M06;"101083";February;19,5887; 461,119; 2.795; 23.663,2
DE18239;M06;"101085";February;9,79437; 230,56; 1.397,5; 11.831,6
DE54456;M48;"101087";February;0,5; 10,545; 56,21; 604
PL99198;M502;"101088";February;0,388509; 6,84164; 52; 469,319
PL99198;M58;"101089";February;1,85563; 19,6697; 149,5; 2.241,61
DE17391;M22;"101091";February;8,44444; 178,009; 1.613,28; 6.552,88
DE17391;M23;"101091";February;10,6352; 202,388; 1.834,22; 8.252,94
DE17391;M23;"101092";February;2,30479; 43,8602; 397,5; 1.788,52
PL99198;M502;"101093";February;34,1572; 601,508; 4.114,56; 41.261,9
PL99198;M502;"101094";February;49,4543; 870,89; 5.957,25; 59.740,8
DE17391;M23;"101096";February;0,816031; 14,7783; 126,494; 633,24
DE99192;M33;"101097";February;2,79691; 54,0642; 328; 3.960,42
DE24395;M66;"101107";February;6,19826; 83,5525; 562; 12.396,5
DE18239;M02;"101109";February;0,580835; 11,9071; 93,9937; 701,649
DE17391;M22;"101112";February;9,84257; 208,072; 1.548,5; 7.637,83
DE17391;M22;"101114";February;2,31726; 48,1528; 303; 1.798,2
DE18239;M04;"101117";February;15,346; 280,065; 2.059; 18.538
DE18239;M06;"101122";February;20,4676; 484,468; 2.919,53; 24.724,8
DE18239;M02;"101123";February;1,40511; 24,4208; 181,5; 1.697,37
DE24395;M63;"101124";February;0,949765; 13,1542; 74; 1.899,53
DE17391;M22;"101126";February;16,4716; 355,458; 2.535; 12.782
DE17391;M22;"101127";February;1,51448; 32,6825; 233,08; 1.175,24
DE17391;M22;"101128";February;2,0812; 44,9124; 274,542; 1.615,01
DE17391;M22;"101129";February;5,77028; 74,3789; 434; 4.477,74
DE25495;M73;"101132";February;3,3312; 46,0373; 259; 5.623,07
DE18239;M06;"101133";February;3,98983; 93,0827; 569; 4.819,71
DE25495;M73;"101135";February;0,948885; 13,588; 129,017; 1.601,72
DE18239;M04;"101136";February;7,1847; 26,5834; 191; 8.679,11
DE18239;M04;"101137";February;25,2808; 457,583; 3.287; 30.539,3
DE18239;M06;"101139";February;0,5; 11,84; 72,9019; 604
DE18239;M04;"101140";February;5,84932; 21,6425; 155,5; 7.065,98
DE18239;M01;"101141";February;11,3101; 209,237; 1.144,5; 13.662,6
DE17391;M22;"101146";February;7,17439; 150,088; 967,5; 5.567,33
DE18239;M04;"101147";February;8,75939; 161,436; 994; 10.581,3
DE18239;M02;"101156";February;3,11463; 51,5472; 306,5; 3.762,48
DE17391;M22;"101211";February;6,89764; 148,851; 1.637,89; 5.352,57
DE18239;M02;"101215";February;0,690759; 11,3077; 68; 834,437
DE24395;M68;"101221";February;6,53234; 52,52; 325; 13.064,7
DE24395;M68;"101222";February;4,12341; 33,1522; 186,5; 8.246,83
DE24395;M68;"101224";February;2,59786; 20,8868; 117,5; 5.195,72
DE24395;M68;"101226";February;2,93453; 23,5936; 146; 5.869,05
DE18239;M04;"101230";February;3,77392; 75,4783; 493; 4.558,89
DE24395;M68;"101235";February;5,9998; 48,2384; 284,307; 11.999,6
DE18239;M06;"101236";February;0,5; 12,51; 71,6947; 604
DE17391;M22;"101239";February;12,1675; 281,556; 1.613,5; 9.441,97
DE17391;M22;"101250";February;0,5; 9,38; 55,661; 388
DE17391;M22;"101251";February;3,28426; 61,6783; 366; 2.548,58
DE86489;M12;"101252";February;33,3189; 153,933; 807,794; 40.782,3
DE86489;M13;"101252";February;19,7206; 69,022; 362,206; 24.138
PL99198;M503;"101253";February;65,798; 240,821; 1.263,75; 94.749,1
DE86489;M18;"101253";February;3,04293; 6,90744; 36,2481; 3.724,54
DE86489;M13;"101254";February;7,54491; 28,5952; 247; 9.234,96
PL99198;M503;"101269";February;3,20203; 11,7194; 61,5; 4.610,93
DE86489;M13;"101270";February;1,00452; 3,80713; 32,8853; 1.229,53
DE86489;M12;"101273";February;1,48488; 6,86016; 36; 1.817,5
DE86489;M18;"101294";February;14,4415; 32,7823; 183,5; 17.676,4
DE86489;M15;"101301";February;4,93355; 34,1402; 128; 6.038,66
DE86489;M12;"101306";February;12,1138; 74,6211; 244,804; 14.827,3
DE86489;M18;"101306";February;9,00292; 27,1888; 89,1963; 11.019,6
DE86489;M16;"101329";February;3,78614; 29,8726; 112; 4.634,23
DE86489;M16;"101331";February;102,023; 804,961; 3.018; 124.876
DE86489;M12;"101333";February;16,0824; 99,0678; 390; 19.684,9
DE86489;M14;"101334";February;29,0335; 198,009; 779,5; 35.537
DE86489;M13;"101349";February;13,23; 66,6792; 280; 16.193,5
DE86489;M15;"101350";February;29,7169; 205,641; 771; 36.373,5
DE86489;M16;"101351";February;0,5; 3,945; 14,7908; 612
DE86489;M15;"101354";February;0,697454; 4,82638; 19; 853,683
DE86489;M16;"101368";February;7,22871; 57,0345; 239,5; 8.847,94
DE86489;M15;"101379";February;9,32749; 64,5462; 242; 11.416,8
DE86489;M13;"101380";February;0,5; 2,52; 10,582; 612
DE86489;M16;"101383";February;3,40658; 18,9746; 83; 4.169,65
DE86489;M15;"101385";February;7,99775; 55,3444; 207,5; 9.789,24
DE86489;M14;"101387";February;29,9362; 204,165; 1.530,93; 36.641,9
DE86489;M15;"101392";February;10,0213; 69,3472; 260; 12.266
DE86489;M18;"101396";February;19,0964; 56,3345; 169; 23.374
DE86489;M15;"101403";February;7,65086; 52,9439; 198,5; 9.364,65
DE86489;M14;"101405";February;16,109; 109,864; 432,5; 19.717,5
DE86489;M14;"101406";February;8,92121; 60,8426; 239,519; 10.919,6
DE86489;M15;"101406";February;13,6547; 94,4906; 371,981; 16.713,4
DE86489;M18;"101413";February;17,4162; 52,5969; 409,251; 21.317,4
DE25495;M71;"101432";February;2,03795; 37,3964; 455; 3.440,07
DE25495;M71;"101436";February;2,34301; 29,8733; 294; 3.955
DE18239;M01;"101462";February;1,01997; 7,77214; 113; 1.232,12
DE25495;M71;"101464";February;1,99587; 36,2849; 248; 3.369,03
DE25495;M71;"101466";February;1,4586; 26,5174; 202,5; 2.462,12
DE24395;M61;"101467";February;1,36804; 15,8283; 122; 2.736,09
DE25495;M71;"101474";February;0,908175; 10,4713; 227,983; 1.533
DE25495;M71;"101475";February;0,621429; 7,16508; 156; 1.048,97
DE25495;M71;"101478";February;1,49897; 27,2514; 223,5; 2.530,27
DE25495;M71;"101479";February;6,3522; 115,483; 902; 10.722,5
DE25495;M71;"101480";February;1,98293; 36,0496; 328,5; 3.347,18
DE24395;M61;"101481";February;9,82659; 109,763; 956,041; 19.653,2
DE24395;M64;"101481";February;0,5; 7,745; 67,4593; 1.000
DE24395;M61;"101485";February;4,67536; 55,6368; 804; 9.350,72
DE18239;M03;"101486";February;55,532; 647,504; 8.456,36; 67.082,7
DE25495;M71;"101491";February;0,537182; 9,76597; 89; 906,763
DE24395;M61;"101492";February;1,20434; 9,39386; 119; 2.408,68
DE24395;M61;"101497";February;1,27216; 10,3554; 198; 2.544,32
DE24395;M61;"101498";February;1,99095; 24,3294; 292; 3.981,91
DE24395;M61;"101499";February;4,68681; 63,3188; 687,5; 9.373,61
PL99198;M57;"101502";February;4,51346; 47,8878; 299; 5.452,26
DE25495;M71;"101504";February;1,58952; 28,8974; 237; 2.683,1
DE18239;M03;"101508";February;1,71814; 15,6694; 202,5; 2.075,51
DE24395;M61;"101518";February;2,37515; 18,6924; 370; 4.750,29
DE18239;M03;"101519";February;1,09427; 17,9131; 268; 1.321,87
DE24395;M61;"101522";February;3,35874; 38,7598; 597,5; 6.717,47
DE24395;M61;"101524";February;3,20696; 37,0083; 570,5; 6.413,92
DE18239;M03;"101526";February;0,5; 8,185; 122,457; 604
DE24395;M61;"101550";February;0,565082; 4,14205; 55; 1.130,16
DE24395;M61;"101552";February;2,34252; 17,1707; 228; 4.685,04
DE24395;M61;"101556";February;1,3151; 9,63968; 128; 2.630,2
DE24395;M61;"101566";February;12,2732; 142; 1.094,5; 24.546,3
DE24395;M61;"101567";February;1,85531; 22,6718; 149; 3.710,61
DE24395;M61;"101568";February;4,66233; 36,3662; 453,5; 9.324,66
DE24395;M61;"101569";February;2,9815; 23,2557; 232; 5.962,99
DE24395;M61;"101571";February;3,04089; 34,2404; 254,5; 6.081,78
DE24395;M61;"101572";February;2,9106; 32,7733; 304,5; 5.821,2
DE24395;M61;"101573";February;1,11284; 8,68012; 86,5934; 2.225,67
DE24395;M61;"101574";February;2,68285; 20,9262; 260,958; 5.365,7
DE24395;M61;"101576";February;1,59866; 12,4695; 155,5; 3.197,32
DE24395;M61;"101577";February;0,971533; 7,57796; 94,5; 1.943,07
DE24395;M61;"101579";February;2,4931; 28,0723; 208,654; 4.986,19
DE54456;M46;"100004";March;3,79284; 34,401; 205; 4.581,75
PL99198;M57;"100005";March;11,9632; 114,607; 1.069; 14.451,5
DE54456;M46;"100007";March;0,5; 4,54; 25,0455; 604
DE99192;M33;"100008";March;2,83111; 45,8923; 214; 4.008,85
DE99192;M32;"100009";March;7,09134; 64,8858; 490; 10.041,3
DE25495;M72;"100029";March;1,73117; 32,4076; 111; 2.922,22
DE25495;M72;"100037";March;3,05149; 57,1849; 351; 5.150,91
DE25495;M73;"100041";March;1,21004; 22,7729; 78; 2.042,54
PL99198;M57;"100042";March;13,5211; 129,532; 1.209; 16.333,5
DE25495;M72;"100044";March;3,49213; 62,4742; 843,676; 5.894,71
DE24395;M63;"100044";March;3,78821; 33,7908; 456,324; 7.576,41
DE25495;M72;"100046";March;6,91581; 119,713; 1.616,65; 11.673,9
DE24395;M64;"100046";March;9,257; 94,1437; 1.271,35; 18.514
DE18239;M04;"100076";March;2,00454; 18,7224; 155; 2.421,49
DE18239;M04;"100078";March;6,51394; 58,9512; 503,899; 7.868,84
DE25495;M72;"100098";March;3,98487; 74,5968; 231; 6.726,47
DE54456;M46;"100099";March;12,478; 113,3; 613,626; 15.073,4
DE54456;M48;"100099";March;1,39297; 19,6409; 106,374; 1.682,71
DE54456;M46;"100151";March;21,8982; 194,237; 1.263; 26.453
DE54456;M46;"100200";March;7,60554; 68,9822; 411,073; 9.187,49
DE54456;M48;"100248";March;2,4712; 34,8439; 173; 2.985,21
DE25495;M72;"100274";March;2,42989; 45,5361; 559; 4.101,65
DE25495;M72;"100275";March;0,830744; 15,5682; 215; 1.402,3
DE25495;M72;"100276";March;0,622092; 11,658; 161; 1.050,09
DE25495;M72;"100277";March;0,694029; 12,9922; 89; 1.171,52
DE25495;M73;"100278";March;0,690341; 12,9922; 89; 1.165,3
DE24395;M63;"100286";March;1,47306; 15,7175; 68; 2.946,11
DE54456;M46;"100289";March;1,25771; 11,42; 63; 1.519,31
DE24395;M67;"100293";March;2,8766; 39,0642; 262; 5.753,2
DE24395;M63;"100294";March;0,451218; 5,09425; 71; 902,436
DE24395;M67;"100295";March;2,13142; 29,2004; 185; 4.262,83
DE24395;M63;"100300";March;6,08636; 65,611; 412; 12.172,7
DE24395;M67;"100302";March;4,75152; 61,152; 384; 9.503,03
DE24395;M64;"100311";March;31,7914; 422,508; 2.918,08; 63.582,9
DE24395;M67;"100311";March;48,0217; 635,327; 4.387,92; 96.043,4
DE24395;M67;"100314";March;4,45841; 60,5453; 379; 8.916,83
DE25495;M71;"100317";March;1,84945; 26,4286; 205; 3.121,87
DE25495;M71;"100318";March;5,07019; 72,453; 562; 8.558,48
DE25495;M71;"100319";March;8,79615; 125,697; 975; 14.847,9
DE25495;M73;"100320";March;2,82342; 53,1367; 182; 4.765,93
DE24395;M63;"100325";March;4,15391; 41,996; 411; 8.307,81
DE24395;M63;"100327";March;3,5475; 35,8652; 351; 7.094,99
DE25495;M73;"100389";March;3,64221; 72,8442; 260; 6.148,05
DE25495;M72;"100390";March;1,11092; 19,8744; 260; 1.875,24
DE25495;M72;"100391";March;1,79884; 32,1812; 421; 3.036,44
DE25495;M71;"100392";March;2,64302; 36,9758; 264,302; 4.461,42
DE25495;M73;"100392";March;2,27497; 41,9278; 299,698; 3.840,15
DE25495;M72;"100393";March;15,8818; 291,272; 2.082; 26.808,4
DE25495;M72;"100394";March;4,9499; 90,7811; 324,45; 8.355,42
DE25495;M73;"100394";March;7,21969; 133,059; 475,55; 12.186,8
DE25495;M72;"100395";March;0,701788; 12,8708; 46; 1.184,62
DE54456;M46;"100396";March;1,80454; 14,5626; 130; 2.179,88
DE24395;M63;"100397";March;0,709677; 7,65032; 30,5; 1.419,35
PL99198;M58;"100402";March;7,94453; 93,1893; 570; 9.596,99
PL99198;M58;"100404";March;3,82662; 44,8863; 302; 4.622,56
DE24395;M67;"100406";March;1,77283; 24,075; 137; 3.545,66
DE24395;M67;"100407";March;2,78798; 37,8608; 237; 5.575,96
DE24395;M67;"100408";March;1,39987; 19,0103; 119; 2.799,74
DE54456;M46;"100412";March;1,12197; 9,95184; 64,677; 1.355,34
DE54456;M48;"100415";March;0,851177; 12,0016; 65; 1.028,22
DE54456;M44;"100417";March;2,652; 28,6681; 110,22; 5.304
DE54456;M44;"100418";March;8,13264; 87,9138; 338; 16.265,3
DE54456;M44;"100419";March;32,2044; 160,056; 650; 64.408,9
DE54456;M44;"100436";March;4,76016; 35,4632; 157; 9.520,31
DE54456;M46;"100524";March;3,83175; 33,9876; 221; 4.628,75
DE24395;M67;"100526";March;8,57399; 120,55; 611; 17.148
DE24395;M63;"100530";March;1,77024; 19,809; 124; 3.540,48
DE24395;M63;"100531";March;0,646407; 7,23329; 41,1614; 1.292,81
DE24395;M63;"100532";March;1,24202; 13,8983; 87; 2.484,05
DE24395;M63;"100533";March;1,8531; 20,7361; 118; 3.706,19
PL99198;M58;"100534";March;6,94671; 81,4849; 413; 8.391,62
PL99198;M58;"100536";March;4,96976; 58,2952; 325; 6.003,47
DE24395;M63;"100538";March;0,5; 5,595; 35,0235; 1.000
DE24395;M63;"100539";March;0,699531; 7,82775; 49; 1.399,06
DE24395;M67;"100543";March;1,93533; 26,2818; 148; 3.870,67
DE24395;M67;"100548";March;2,72289; 36,9768; 217; 5.445,77
DE24395;M67;"100549";March;1,53084; 20,7888; 122; 3.061,68
DE24395;M63;"100550";March;0,472064; 5,2824; 31; 944,129
DE54456;M46;"100553";March;1,90363; 17,285; 176; 2.299,58
DE54456;M46;"100557";March;6,4494; 58,5606; 442; 7.790,88
DE54456;M46;"100558";March;9,06127; 82,2763; 621; 10.946
DE24395;M63;"100559";March;11,3323; 126,015; 845; 22.664,5
DE99192;M31;"100562";March;2,55416; 62,0662; 294,18; 3.616,7
DE54456;M46;"100563";March;2,51886; 22,3423; 132; 3.042,79
DE24395;M63;"100564";March;16,2644; 208,184; 2.167; 32.528,7
DE24395;M63;"100567";March;2,77003; 35,4564; 315; 5.540,06
DE24395;M63;"100568";March;17,4959; 176,884; 1.124; 34.991,9
DE24395;M63;"100581";March;7,43951; 95,2258; 846; 14.879
DE24395;M63;"100582";March;7,43951; 95,2258; 846; 14.879
DE54456;M48;"100584";March;43,22; 911,511; 6.908; 52.209,8
DE54456;M48;"100585";March;0,880116; 18,6057; 119; 1.063,18
DE99192;M33;"100586";March;1,85293; 25,0145; 249; 2.623,75
DE18239;M02;"100594";March;0,774789; 13,8067; 98,5; 935,945
DE18239;M02;"100595";March;5,26846; 66,8041; 605; 6.364,3
DE18239;M06;"100604";March;0,5; 10,28; 69,5299; 604
DE99192;M32;"100606";March;17,1098; 301,303; 2.015; 24.227,4
DE99192;M32;"100607";March;3,46647; 61,0446; 442; 4.908,53
DE24395;M64;"100610";March;2,64252; 44,4736; 408,54; 5.285,04
DE24395;M68;"100610";March;0,5; 6,23; 57,2295; 1.000
DE18239;M02;"100614";March;23,8695; 428,697; 2.866,96; 28.834,4
DE18239;M02;"100616";March;1,60713; 26,9676; 227; 1.941,41
DE18239;M02;"100621";March;0,42026; 6,7914; 49; 507,674
DE99192;M32;"100623";March;0,642072; 10,7675; 93; 909,173
PL99198;M58;"100624";March;3,81729; 55,0835; 377; 4.611,28
PL99198;M57;"100630";March;3,20977; 46,1565; 351; 3.877,4
DE18239;M06;"100632";March;10,2261; 224,872; 1.415; 12.353,1
DE18239;M06;"100644";March;0,5; 11,125; 85,6296; 604
DE18239;M06;"100645";March;4,21018; 93,6764; 618; 5.085,89
DE18239;M02;"100646";March;17,2188; 315,965; 2.432; 20.800,3
DE18239;M02;"100647";March;3,48287; 61,5423; 411,957; 4.207,3
DE18239;M04;"100647";March;7,21826; 107,119; 717,043; 8.719,66
DE18239;M04;"100648";March;1,98444; 25,5; 250; 2.397,2
PL99198;M57;"100650";March;3,69624; 51,8583; 390; 4.465,06
DE54456;M46;"100651";March;3,63249; 48,3484; 209,5; 4.388,05
DE18239;M01;"100660";March;2,50612; 38,3437; 251,5; 3.027,4
PL99198;M58;"100660";March;8,57892; 134,089; 879,5; 10.363,3
DE18239;M01;"100726";March;2,12304; 32,4824; 295; 2.564,63
DE54456;M48;"100727";March;0,5; 10,57; 62,1984; 604
DE18239;M01;"100754";March;8,58233; 131,31; 604; 10.367,5
DE18239;M01;"100775";March;1,21569; 18,6001; 122; 1.468,56
PL99198;M58;"100779";March;8,14684; 99,3915; 650; 9.841,39
DE24395;M64;"100782";March;2,05972; 33,9648; 182; 4.119,45
DE18239;M06;"100784";March;0,985157; 20,048; 149; 1.190,07
DE24395;M68;"100785";March;0,5; 6,315; 39,078; 1.000
DE24395;M64;"100787";March;1,05951; 17,2912; 107; 2.119,02
DE24395;M66;"100788";March;3,41572; 37,6754; 340; 6.831,44
DE18239;M02;"100791";March;2,24895; 31,2603; 258,329; 2.716,73
PL99198;M57;"100792";March;1,06992; 15,3855; 117; 1.292,47
DE18239;M02;"100793";March;2,78524; 47,2377; 284; 3.364,57
DE18239;M02;"100830";March;0,5; 8,48; 57,3554; 604
DE17391;M22;"100847";March;2,16883; 40,8391; 265; 1.683,02
DE18239;M01;"100848";March;0,144263; 2,27936; 16; 174,27
DE17391;M23;"100849";March;32,3018; 549,453; 4.160; 25.066,2
DE17391;M22;"100850";March;3,73574; 22,6013; 175; 2.898,94
DE17391;M23;"100851";March;24,731; 420,675; 3.185; 19.191,3
DE17391;M23;"100853";March;8,12626; 138,228; 897; 6.305,98
DE24395;M64;"100879";March;2,22983; 36,3909; 195; 4.459,67
DE24395;M66;"100880";March;4,34589; 47,9352; 309; 8.691,78
DE24395;M66;"100881";March;0,5; 5,515; 35,5508; 1.000
DE24395;M68;"100881";March;56,8268; 685,899; 4.421,45; 113.654
DE24395;M68;"100885";March;5,82237; 66,9573; 689,215; 11.644,7
DE24395;M64;"100886";March;1,48765; 22,3445; 230; 2.975,3
DE24395;M68;"100887";March;6,2007; 71,3081; 734; 12.401,4
DE24395;M64;"100888";March;3,93904; 59,1644; 609; 7.878,08
DE18239;M02;"100889";March;4,6925; 84,2773; 486; 5.668,54
DE18239;M02;"100890";March;1,89149; 32,9686; 195; 2.284,92
DE18239;M02;"100891";March;6,05276; 105,5; 624; 7.311,74
DE99192;M31;"100917";March;79,2138; 1.787,06; 8.482,76; 112.167
DE99192;M32;"100917";March;43,627; 820,189; 3.893,24; 61.775,9
DE17391;M23;"100942";March;4,03123; 76,7546; 530; 3.128,23
DE54456;M46;"100943";March;5,14388; 61,4694; 530; 6.213,81
DE25495;M73;"100944";March;3,73745; 86,1482; 846; 6.308,81
DE25495;M72;"100945";March;1,98854; 42,9723; 422; 3.356,65
DE25495;M73;"100946";March;2,32939; 31,2372; 317; 3.932,02
DE54456;M48;"100947";March;9,09187; 212,841; 1.163; 10.983
DE99192;M31;"100952";March;1,23203; 26,1684; 154,724; 1.744,56
DE99192;M33;"100952";March;6,74026; 133,659; 790,276; 9.544,21
DE99192;M32;"100953";March;1,77303; 31,3826; 167; 2.510,61
DE24395;M64;"100955";March;12,4367; 186,799; 1.805; 24.873,4
DE24395;M64;"100956";March;12,4559; 187,088; 1.805; 24.911,9
DE18239;M06;"100957";March;4,67343; 103,984; 686; 5.645,51
DE18239;M06;"100958";March;13,4726; 192,658; 1.271; 16.274,9
DE18239;M06;"100961";March;1,25372; 26,3407; 155; 1.514,5
DE18239;M02;"100964";March;5,8951; 99,981; 656; 7.121,29
DE18239;M01;"100967";March;1,57468; 28,5805; 325; 1.902,22
DE17391;M23;"100968";March;8,73889; 114,305; 1.354; 6.781,38
DE54456;M48;"100971";March;0,5; 10,57; 67,6047; 604
DE54456;M48;"100987";March;5,82008; 123,037; 724; 7.030,66
DE18239;M06;"101029";March;1,04135; 21,8893; 112; 1.257,96
DE99192;M33;"101038";March;15,5398; 308,155; 1.822; 22.004,4
DE54456;M48;"101039";March;0,5; 10,575; 67,8842; 604
PL99198;M57;"101041";March;2,02097; 29,0615; 221; 2.441,33
DE18239;M01;"101042";March;1,0733; 16,239; 75,0416; 1.296,54
DE24395;M63;"101044";March;0,933882; 11,4307; 84; 1.867,76
DE24395;M66;"101045";March;24,5261; 408,85; 2.600; 49.052,2
DE24395;M67;"101046";March;10,0366; 168,214; 650; 20.073,2
DE24395;M64;"101048";March;3,08425; 50,921; 260; 6.168,5
DE25495;M73;"101052";March;5,83132; 103,739; 510; 9.843,26
DE18239;M02;"101055";March;1,25429; 16,933; 144; 1.515,19
DE18239;M02;"101056";March;1,25429; 16,933; 144; 1.515,19
DE99192;M32;"101057";March;1,56172; 18,6938; 132; 2.211,4
DE24395;M64;"101061";March;0,5; 8,245; 41,2394; 1.000
DE24395;M64;"101067";March;1,95432; 31,8946; 157; 3.908,65
DE24395;M64;"101069";March;2,20665; 36,0126; 195; 4.413,31
DE24395;M64;"101070";March;2,03672; 33,2393; 187; 4.073,44
DE24395;M64;"101071";March;3,85867; 62,9735; 367; 7.717,34
DE17391;M23;"101072";March;0,760988; 12,9444; 84; 590,526
DE17391;M23;"101073";March;0,5; 8,505; 55,1914; 388
DE99192;M32;"101075";March;7,72854; 136,1; 910; 10.943,6
DE99192;M33;"101076";March;3,86814; 76,2797; 408; 5.477,28
DE24395;M63;"101077";March;0,647755; 5,58365; 85; 1.295,51
DE25495;M72;"101079";March;0,816007; 17,3075; 179; 1.377,42
DE99192;M33;"101081";March;42,1235; 814,248; 3.705; 59.646,9
DE18239;M06;"101083";March;20,4999; 482,567; 2.925; 24.763,8
DE18239;M06;"101085";March;10,4777; 246,645; 1.495; 12.657,1
DE54456;M48;"101087";March;28,8027; 607,449; 3.238; 34.793,7
PL99198;M58;"101089";March;1,93631; 20,5249; 156; 2.339,07
DE17391;M22;"101091";March;8,09701; 170,685; 1.546,9; 6.283,28
DE17391;M23;"101091";March;11,5332; 219,477; 1.989,1; 8.949,79
DE17391;M22;"101092";March;2,31358; 48,7703; 442; 1.795,34
PL99198;M502;"101093";March;56,1184; 988,244; 6.760; 67.791
PL99198;M502;"101094";March;36,8816; 649,486; 4.442,75; 44.553
DE17391;M23;"101095";March;1,77662; 32,1746; 257,5; 1.378,66
DE17391;M23;"101096";March;0,5; 9,055; 77,5058; 388
DE99192;M33;"101097";March;3,0442; 58,8443; 357; 4.310,58
DE18239;M04;"101103";March;1,27293; 17,4646; 105; 1.537,7
DE24395;M66;"101107";March;4,7645; 64,2254; 432; 9.529
DE18239;M02;"101109";March;0,964004; 19,7621; 156; 1.164,52
DE17391;M22;"101112";March;10,3415; 218,62; 1.627; 8.025,03
DE17391;M22;"101113";March;1,01596; 21,4775; 137; 788,388
DE17391;M22;"101114";March;2,42433; 50,3776; 317; 1.881,28
DE18239;M04;"101117";March;16,0764; 293,395; 2.157; 19.420,3
DE18239;M06;"101122";March;7,34682; 173,899; 1.047,97; 8.874,96
DE18239;M02;"101123";March;1,4864; 25,8336; 192; 1.795,57
DE24395;M63;"101124";March;1,28347; 17,776; 100; 2.566,93
DE17391;M22;"101126";March;17,7387; 382,801; 2.730; 13.765,2
DE17391;M22;"101127";March;11,8258; 255,2; 1.820; 9.176,81
DE17391;M22;"101128";March;0,5; 10,79; 65,9576; 388
DE17391;M22;"101129";March;6,3154; 81,4055; 475; 4.900,75
DE25495;M73;"101132";March;3,24117; 44,793; 252; 5.471,1
DE18239;M06;"101133";March;4,33342; 101,099; 618; 5.234,77
DE18239;M04;"101136";March;7,52324; 27,836; 200; 9.088,08
DE18239;M04;"101137";March;26,5345; 480,275; 3.450; 32.053,7
DE18239;M06;"101139";March;0,5; 11,84; 72,9019; 604
DE18239;M04;"101140";March;6,13144; 22,6863; 163; 7.406,78
DE17391;M22;"101146";March;7,53404; 157,612; 1.016; 5.846,41
DE18239;M04;"101147";March;9,20881; 169,718; 1.045; 11.124,2
DE18239;M02;"101156";March;3,33311; 55,163; 328; 4.026,4
DE17391;M22;"101211";March;2,30196; 49,6762; 546,613; 1.786,32
DE24395;M68;"101221";March;6,53234; 52,52; 325; 13.064,7
DE24395;M68;"101222";March;4,35556; 35,0187; 197; 8.711,12
DE24395;M68;"101224";March;2,8079; 22,5755; 127; 5.615,8
DE24395;M68;"101225";March;5,00478; 40,2384; 249; 10.009,6
DE24395;M68;"101226";March;3,05512; 24,5632; 152; 6.110,25
DE24395;M68;"101227";March;0,894428; 7,1912; 44,5; 1.788,86
DE24395;M68;"101235";March;0,5; 4,02; 23,6931; 1.000
DE18239;M06;"101236";March;4,97967; 124,591; 714,031; 6.015,44
DE17391;M22;"101239";March;12,7972; 296,126; 1.697; 9.930,6
DE18239;M04;"101242";March;0,531428; 6,56845; 39,5; 641,966
DE17391;M22;"101247";March;0,667199; 18,5948; 132; 517,747
DE17391;M22;"101250";March;3,01827; 56,6227; 336; 2.342,18
DE17391;M22;"101251";March;3,44578; 64,7117; 384; 2.673,92
DE86489;M12;"101252";March;42,2688; 195,282; 1.024,78; 51.737
DE86489;M13;"101252";March;7,90669; 27,6734; 145,221; 9.677,78
PL99198;M503;"101253";March;67,6852; 247,728; 1.300; 97.466,8
DE86489;M13;"101254";March;7,1478; 27,0902; 234; 8.748,91
PL99198;M503;"101269";March;4,73797; 17,341; 91; 6.822,67
DE86489;M13;"101270";March;5,2234; 19,7967; 171; 6.393,44
DE86489;M12;"101273";March;1,48488; 6,86016; 36; 1.817,5
PL99198;M503;"101281";March;5,57679; 20,411; 107,111; 8.030,57
DE86489;M12;"101281";March;0,944104; 4,36176; 22,8892; 1.155,58
DE86489;M12;"101291";March;1,01055; 4,66872; 24,5; 1.236,91
DE86489;M18;"101294";March;14,0874; 31,9783; 179; 17.243
DE86489;M13;"101300";March;1,701; 8,57304; 36; 2.082,02
DE86489;M15;"101301";March;4,93355; 34,1402; 128; 6.038,66
DE86489;M12;"101303";March;0,569063; 3,50543; 11,5; 696,533
DE86489;M12;"101306";March;9,64018; 59,3835; 194,815; 11.799,6
DE86489;M18;"101306";March;16,7737; 50,6565; 166,185; 20.531
DE86489;M13;"101311";March;5,38657; 26,7713; 113,925; 6.593,16
DE86489;M18;"101322";March;0,5; 1,51; 5,66137; 612
DE86489;M18;"101330";March;3,92421; 11,8511; 71,5; 4.803,24
DE86489;M15;"101331";March;0,93339; 6,45906; 24,2166; 1.142,47
DE86489;M16;"101331";March;102,151; 805,97; 3.021,78; 125.033
DE86489;M12;"101333";March;16,0824; 99,0678; 390; 19.684,9
DE86489;M15;"101334";March;29,9905; 207,534; 817; 36.708,4
DE86489;M13;"101349";March;14,175; 71,442; 300; 17.350,2
DE86489;M15;"101350";March;32,6462; 225,912; 847; 39.959
DE86489;M16;"101351";March;30,0863; 237,381; 890; 36.825,6
DE86489;M14;"101354";March;5,23952; 35,7336; 140,672; 6.413,18
DE86489;M15;"101354";March;0,929734; 6,43376; 25,3278; 1.137,99
DE86489;M13;"101368";March;2,20381; 11,1072; 46,6415; 2.697,46
DE86489;M16;"101368";March;6,22842; 49,1422; 206,359; 7.623,58
DE86489;M14;"101379";March;9,77713; 66,68; 250; 11.967,2
DE86489;M13;"101380";March;5,24475; 26,4335; 111; 6.419,57
DE86489;M16;"101383";March;0,677211; 3,77207; 16,5; 828,906
DE86489;M14;"101385";March;8,52565; 58,145; 218; 10.435,4
DE86489;M14;"101387";March;32,9098; 224,445; 1.683; 40.281,6
DE86489;M13;"101388";March;2,01098; 10,1354; 38; 2.461,44
DE86489;M14;"101392";March;10,1682; 69,3472; 260; 12.445,9
DE86489;M18;"101396";March;19,0964; 56,3345; 169; 23.374
DE86489;M14;"101403";March;10,3638; 70,6808; 265; 12.685,2
DE86489;M14;"101405";March;16,0159; 109,229; 430; 19.603,5
DE86489;M15;"101406";March;23,5666; 163,081; 642; 28.845,5
DE86489;M18;"101413";March;17,6183; 53,2073; 414; 21.564,8
DE25495;M71;"101431";March;0,334579; 3,8577; 42; 564,77
DE25495;M71;"101432";March;2,03795; 37,3964; 455; 3.440,07
DE25495;M71;"101436";March;2,85305; 36,3764; 358; 4.815,95
DE25495;M71;"101439";March;1,46161; 24,0435; 139,117; 2.467,2
DE25495;M71;"101457";March;0,307947; 2,85775; 35; 519,815
DE25495;M71;"101464";March;1,99587; 36,2849; 248; 3.369,03
DE25495;M71;"101466";March;1,53423; 27,8923; 213; 2.589,78
DE24395;M61;"101467";March;1,17742; 13,6227; 105; 2.354,83
DE25495;M71;"101472";March;0,570033; 10,3632; 170; 962,216
DE25495;M71;"101475";March;0,334616; 3,85812; 84; 564,831
DE25495;M71;"101478";March;1,5694; 28,5316; 234; 2.649,14
DE25495;M71;"101479";March;6,3522; 115,483; 902; 10.722,5
DE25495;M71;"101480";March;2,04027; 37,0921; 338; 3.443,98
DE24395;M61;"101481";March;5,70453; 63,7195; 555; 11.409,1
DE18239;M03;"101484";March;0,5308; 8,6892; 130; 641,207
DE24395;M61;"101485";March;4,67536; 55,6368; 804; 9.350,72
DE18239;M03;"101486";March;0,5; 5,83; 76,1395; 604
DE25495;M71;"101491";March;0,63979; 11,6314; 106; 1.079,97
DE24395;M61;"101492";March;1,19422; 9,31492; 118; 2.388,44
DE24395;M61;"101497";March;1,29144; 10,5123; 201; 2.582,87
DE24395;M61;"101498";March;1,99095; 24,3294; 292; 3.981,91
DE24395;M61;"101499";March;5,12651; 69,2592; 752; 10.253
PL99198;M57;"101502";March;4,51346; 47,8878; 299; 5.452,26
DE25495;M71;"101504";March;1,60964; 29,2632; 240; 2.717,07
DE24395;M61;"101518";March;2,37515; 18,6924; 370; 4.750,29
DE18239;M03;"101520";March;3,60944; 59,0866; 884; 4.360,21
DE18239;M03;"101521";March;0,942161; 8,59251; 111; 1.138,13
DE24395;M61;"101522";March;3,61451; 41,7114; 643; 7.229,01
DE24395;M61;"101524";March;3,54705; 40,933; 631; 7.094,1
DE18239;M03;"101526";March;6,85549; 112,224; 1.679; 8.281,43
DE24395;M61;"101527";March;0,5; 4,675; 35,2511; 1.000
DE24395;M61;"101550";March;1,62333; 11,899; 158; 3.246,65
DE24395;M61;"101552";March;2,34252; 17,1707; 228; 4.685,04
DE24395;M61;"101554";March;0,54797; 4,01662; 53,3345; 1.095,94
DE24395;M61;"101556";March;1,3151; 9,63968; 128; 2.630,2
DE24395;M61;"101566";March;12,4133; 143,622; 1.107; 24.826,7
DE24395;M61;"101567";March;1,94247; 23,737; 156; 3.884,94
DE24395;M61;"101568";March;4,72915; 36,8874; 460; 9.458,31
DE24395;M61;"101569";March;3,04575; 23,7569; 237; 6.091,51
DE24395;M61;"101570";March;0,674692; 5,2626; 52,5; 1.349,38
DE24395;M61;"101571";March;3,10661; 34,9804; 260; 6.213,21
DE24395;M61;"101572";March;2,98229; 33,5806; 312; 5.964,58
DE24395;M61;"101573";March;1,5293; 11,9286; 119; 3.058,61
DE24395;M61;"101574";March;2,91974; 22,774; 284; 5.839,48
DE24395;M61;"101576";March;1,66548; 12,9908; 162; 3.330,97
DE24395;M61;"101577";March;1,10004; 8,58033; 107; 2.200,08
DE24395;M61;"101579";March;2,59282; 29,1952; 217; 5.185,64
