Werk1;Werk2;Monat;eingehende IC-Transporte in Paletten;eingehende IC-Transportkosten;ausgehende IC-Transporte in Paletten;ausgehende IC-Transportkosten
DE54456;DE18239;January;2581.000000;9868.529412;9082.751686;34728.168210;
DE54456;DE18239;February;1672.000000;6392.941176;5104.645363;19517.761682;
DE54456;DE18239;March;2237.500000;8555.147059;1163.000000;4446.764706;
DE54456;DE86489;January;353.000000;5201.558824;0.000000;0.000000;
DE54456;DE86489;February;14.000000;206.294118;0.000000;0.000000;
DE54456;DE86489;March;25.661368;378.127801;0.000000;0.000000;
DE54456;DE17391;January;171.161368;2265.371043;0.000000;0.000000;
DE54456;DE17391;February;24.000000;317.647059;0.000000;0.000000;
DE54456;DE17391;March;48.338632;639.776015;0.000000;0.000000;
DE54456;DE99192;January;916.500000;8625.882353;0.000000;0.000000;
DE54456;DE99192;February;285.000000;2682.352941;0.000000;0.000000;
DE54456;DE99192;March;234.000000;2202.352941;0.000000;0.000000;
DE54456;PL99198;January;14.500000;298.529412;92.000000;1758.823529;
DE54456;PL99198;February;0.000000;0.000000;26.000000;497.058824;
DE54456;PL99198;March;0.000000;0.000000;89.000000;1701.470588;
DE54456;DE24395;January;507.838632;8215.036699;0.000000;0.000000;
DE54456;DE24395;February;269.000000;4351.470588;0.000000;0.000000;
DE54456;DE24395;March;423.000000;6842.647059;0.000000;0.000000;
DE54456;DE49393;January;154.975389;7065.054491;0.000000;0.000000;
DE54456;DE49393;February;3.000000;136.764706;0.000000;0.000000;
DE54456;DE49393;March;21.000000;957.352941;0.000000;0.000000;
DE54456;DE73099;January;70.000000;3705.882353;0.000000;0.000000;
DE54456;DE73099;February;57.000000;3017.647059;0.000000;0.000000;
DE54456;DE73099;March;0.000000;0.000000;0.000000;0.000000;
DE54456;DE25495;January;44.000000;2633.529412;0.000000;0.000000;
DE54456;DE25495;February;0.000000;0.000000;0.000000;0.000000;
DE54456;DE25495;March;0.000000;0.000000;0.000000;0.000000;
DE18239;DE54456;January;9082.751686;34728.168210;2581.000000;9868.529412;
DE18239;DE54456;February;5104.645363;19517.761682;1672.000000;6392.941176;
DE18239;DE54456;March;1163.000000;4446.764706;2237.500000;8555.147059;
DE18239;DE86489;January;5666.074918;78325.153279;0.000000;0.000000;
DE18239;DE86489;February;2807.000000;38802.647059;0.000000;0.000000;
DE18239;DE86489;March;3852.000000;53248.235294;0.000000;0.000000;
DE18239;DE17391;January;3151.348464;32440.351837;0.000000;0.000000;
DE18239;DE17391;February;1723.651536;17743.471692;0.000000;0.000000;
DE18239;DE17391;March;2233.000000;22986.764706;0.000000;0.000000;
DE18239;DE99192;January;506.000000;4762.352941;0.000000;0.000000;
DE18239;DE99192;February;115.000000;1082.352941;0.000000;0.000000;
DE18239;DE99192;March;48.000000;451.764706;0.000000;0.000000;
DE18239;PL99198;January;271.036120;5085.913081;202.500000;3871.323529;
DE18239;PL99198;February;0.000000;0.000000;0.000000;0.000000;
DE18239;PL99198;March;0.000000;0.000000;55.500000;1061.029412;
DE18239;DE24395;January;18501.425082;299287.758678;0.000000;0.000000;
DE18239;DE24395;February;17724.000000;286711.764706;0.000000;0.000000;
DE18239;DE24395;March;9798.500000;158505.147059;0.000000;0.000000;
DE18239;DE49393;January;61.000000;2780.882353;0.000000;0.000000;
DE18239;DE49393;February;0.000000;0.000000;0.000000;0.000000;
DE18239;DE49393;March;0.000000;0.000000;0.000000;0.000000;
DE18239;DE73099;January;55.000000;2911.764706;0.000000;0.000000;
DE18239;DE73099;February;0.000000;0.000000;0.000000;0.000000;
DE18239;DE73099;March;5.000000;264.705882;0.000000;0.000000;
DE18239;DE25495;January;17.000000;1065.000000;0.000000;0.000000;
DE18239;DE25495;February;0.000000;0.000000;0.000000;0.000000;
DE18239;DE25495;March;0.000000;0.000000;0.000000;0.000000;
DE86489;DE54456;January;0.000000;0.000000;353.000000;5201.558824;
DE86489;DE54456;February;0.000000;0.000000;14.000000;206.294118;
DE86489;DE54456;March;0.000000;0.000000;25.661368;378.127801;
DE86489;DE18239;January;0.000000;0.000000;5666.074918;78325.153279;
DE86489;DE18239;February;0.000000;0.000000;2807.000000;38802.647059;
DE86489;DE18239;March;0.000000;0.000000;3852.000000;53248.235294;
DE86489;DE17391;January;0.000000;0.000000;0.000000;0.000000;
DE86489;DE17391;February;0.000000;0.000000;0.000000;0.000000;
DE86489;DE17391;March;0.000000;0.000000;0.000000;0.000000;
DE86489;DE99192;January;0.000000;0.000000;0.000000;0.000000;
DE86489;DE99192;February;0.000000;0.000000;0.000000;0.000000;
DE86489;DE99192;March;0.000000;0.000000;0.000000;0.000000;
DE86489;PL99198;January;0.000000;0.000000;1073.410579;10418.396800;
DE86489;PL99198;February;0.000000;0.000000;628.248111;6097.702252;
DE86489;PL99198;March;0.000000;0.000000;681.000000;6609.705882;
DE86489;DE24395;January;0.000000;0.000000;0.000000;0.000000;
DE86489;DE24395;February;0.000000;0.000000;0.000000;0.000000;
DE86489;DE24395;March;0.000000;0.000000;0.000000;0.000000;
DE86489;DE49393;January;0.000000;0.000000;0.000000;0.000000;
DE86489;DE49393;February;0.000000;0.000000;0.000000;0.000000;
DE86489;DE49393;March;0.000000;0.000000;0.000000;0.000000;
DE86489;DE73099;January;0.000000;0.000000;0.000000;0.000000;
DE86489;DE73099;February;0.000000;0.000000;0.000000;0.000000;
DE86489;DE73099;March;0.000000;0.000000;0.000000;0.000000;
DE86489;DE25495;January;0.000000;0.000000;0.000000;0.000000;
DE86489;DE25495;February;0.000000;0.000000;0.000000;0.000000;
DE86489;DE25495;March;0.000000;0.000000;0.000000;0.000000;
DE17391;DE54456;January;0.000000;0.000000;171.161368;2265.371043;
DE17391;DE54456;February;0.000000;0.000000;24.000000;317.647059;
DE17391;DE54456;March;0.000000;0.000000;48.338632;639.776015;
DE17391;DE18239;January;0.000000;0.000000;3151.348464;32440.351837;
DE17391;DE18239;February;0.000000;0.000000;1723.651536;17743.471692;
DE17391;DE18239;March;0.000000;0.000000;2233.000000;22986.764706;
DE17391;DE86489;January;0.000000;0.000000;0.000000;0.000000;
DE17391;DE86489;February;0.000000;0.000000;0.000000;0.000000;
DE17391;DE86489;March;0.000000;0.000000;0.000000;0.000000;
DE17391;DE99192;January;0.000000;0.000000;0.000000;0.000000;
DE17391;DE99192;February;0.000000;0.000000;0.000000;0.000000;
DE17391;DE99192;March;0.000000;0.000000;0.000000;0.000000;
DE17391;PL99198;January;0.000000;0.000000;184.500000;2376.794118;
DE17391;PL99198;February;0.000000;0.000000;29.500000;380.029412;
DE17391;PL99198;March;0.000000;0.000000;6.000000;77.294118;
DE17391;DE24395;January;0.000000;0.000000;0.000000;0.000000;
DE17391;DE24395;February;0.000000;0.000000;0.000000;0.000000;
DE17391;DE24395;March;0.000000;0.000000;0.000000;0.000000;
DE17391;DE49393;January;0.000000;0.000000;0.000000;0.000000;
DE17391;DE49393;February;0.000000;0.000000;0.000000;0.000000;
DE17391;DE49393;March;0.000000;0.000000;0.000000;0.000000;
DE17391;DE73099;January;0.000000;0.000000;0.000000;0.000000;
DE17391;DE73099;February;0.000000;0.000000;0.000000;0.000000;
DE17391;DE73099;March;0.000000;0.000000;0.000000;0.000000;
DE17391;DE25495;January;0.000000;0.000000;0.000000;0.000000;
DE17391;DE25495;February;0.000000;0.000000;0.000000;0.000000;
DE17391;DE25495;March;0.000000;0.000000;0.000000;0.000000;
DE99192;DE54456;January;0.000000;0.000000;916.500000;8625.882353;
DE99192;DE54456;February;0.000000;0.000000;285.000000;2682.352941;
DE99192;DE54456;March;0.000000;0.000000;234.000000;2202.352941;
DE99192;DE18239;January;0.000000;0.000000;506.000000;4762.352941;
DE99192;DE18239;February;0.000000;0.000000;115.000000;1082.352941;
DE99192;DE18239;March;0.000000;0.000000;48.000000;451.764706;
DE99192;DE86489;January;0.000000;0.000000;0.000000;0.000000;
DE99192;DE86489;February;0.000000;0.000000;0.000000;0.000000;
DE99192;DE86489;March;0.000000;0.000000;0.000000;0.000000;
DE99192;DE17391;January;0.000000;0.000000;0.000000;0.000000;
DE99192;DE17391;February;0.000000;0.000000;0.000000;0.000000;
DE99192;DE17391;March;0.000000;0.000000;0.000000;0.000000;
DE99192;PL99198;January;60.000000;1094.117647;62.000000;1130.588235;
DE99192;PL99198;February;0.000000;0.000000;0.000000;0.000000;
DE99192;PL99198;March;0.000000;0.000000;0.000000;0.000000;
DE99192;DE24395;January;0.000000;0.000000;0.000000;0.000000;
DE99192;DE24395;February;0.000000;0.000000;0.000000;0.000000;
DE99192;DE24395;March;0.000000;0.000000;0.000000;0.000000;
DE99192;DE49393;January;201.500000;8474.852941;0.000000;0.000000;
DE99192;DE49393;February;0.000000;0.000000;0.000000;0.000000;
DE99192;DE49393;March;60.000000;2523.529412;0.000000;0.000000;
DE99192;DE73099;January;113.500000;5841.911765;0.000000;0.000000;
DE99192;DE73099;February;80.000000;4117.647059;0.000000;0.000000;
DE99192;DE73099;March;0.000000;0.000000;0.000000;0.000000;
DE99192;DE25495;January;220.000000;12941.176471;0.000000;0.000000;
DE99192;DE25495;February;0.000000;0.000000;0.000000;0.000000;
DE99192;DE25495;March;0.000000;0.000000;0.000000;0.000000;
PL99198;DE54456;January;92.000000;1758.823529;14.500000;298.529412;
PL99198;DE54456;February;26.000000;497.058824;0.000000;0.000000;
PL99198;DE54456;March;89.000000;1701.470588;0.000000;0.000000;
PL99198;DE18239;January;202.500000;3871.323529;271.036120;5085.913081;
PL99198;DE18239;February;0.000000;0.000000;0.000000;0.000000;
PL99198;DE18239;March;55.500000;1061.029412;0.000000;0.000000;
PL99198;DE86489;January;1073.410579;10418.396800;0.000000;0.000000;
PL99198;DE86489;February;628.248111;6097.702252;0.000000;0.000000;
PL99198;DE86489;March;681.000000;6609.705882;0.000000;0.000000;
PL99198;DE17391;January;184.500000;2376.794118;0.000000;0.000000;
PL99198;DE17391;February;29.500000;380.029412;0.000000;0.000000;
PL99198;DE17391;March;6.000000;77.294118;0.000000;0.000000;
PL99198;DE99192;January;62.000000;1130.588235;60.000000;1094.117647;
PL99198;DE99192;February;0.000000;0.000000;0.000000;0.000000;
PL99198;DE99192;March;0.000000;0.000000;0.000000;0.000000;
PL99198;DE24395;January;0.000000;0.000000;0.000000;0.000000;
PL99198;DE24395;February;0.000000;0.000000;0.000000;0.000000;
PL99198;DE24395;March;0.000000;0.000000;0.000000;0.000000;
PL99198;DE49393;January;32.500000;1577.205882;0.000000;0.000000;
PL99198;DE49393;February;0.000000;0.000000;0.000000;0.000000;
PL99198;DE49393;March;0.000000;0.000000;0.000000;0.000000;
PL99198;DE73099;January;0.000000;0.000000;0.000000;0.000000;
PL99198;DE73099;February;0.000000;0.000000;0.000000;0.000000;
PL99198;DE73099;March;0.000000;0.000000;0.000000;0.000000;
PL99198;DE25495;January;0.000000;0.000000;0.000000;0.000000;
PL99198;DE25495;February;0.000000;0.000000;0.000000;0.000000;
PL99198;DE25495;March;0.000000;0.000000;0.000000;0.000000;
DE24395;DE54456;January;0.000000;0.000000;507.838632;8215.036699;
DE24395;DE54456;February;0.000000;0.000000;269.000000;4351.470588;
DE24395;DE54456;March;0.000000;0.000000;423.000000;6842.647059;
DE24395;DE18239;January;0.000000;0.000000;18501.425082;299287.758678;
DE24395;DE18239;February;0.000000;0.000000;17724.000000;286711.764706;
DE24395;DE18239;March;0.000000;0.000000;9798.500000;158505.147059;
DE24395;DE86489;January;0.000000;0.000000;0.000000;0.000000;
DE24395;DE86489;February;0.000000;0.000000;0.000000;0.000000;
DE24395;DE86489;March;0.000000;0.000000;0.000000;0.000000;
DE24395;DE17391;January;0.000000;0.000000;0.000000;0.000000;
DE24395;DE17391;February;0.000000;0.000000;0.000000;0.000000;
DE24395;DE17391;March;0.000000;0.000000;0.000000;0.000000;
DE24395;DE99192;January;0.000000;0.000000;0.000000;0.000000;
DE24395;DE99192;February;0.000000;0.000000;0.000000;0.000000;
DE24395;DE99192;March;0.000000;0.000000;0.000000;0.000000;
DE24395;PL99198;January;0.000000;0.000000;0.000000;0.000000;
DE24395;PL99198;February;0.000000;0.000000;0.000000;0.000000;
DE24395;PL99198;March;0.000000;0.000000;0.000000;0.000000;
DE24395;DE49393;January;0.000000;0.000000;0.000000;0.000000;
DE24395;DE49393;February;0.000000;0.000000;0.000000;0.000000;
DE24395;DE49393;March;0.000000;0.000000;0.000000;0.000000;
DE24395;DE73099;January;0.000000;0.000000;0.000000;0.000000;
DE24395;DE73099;February;0.000000;0.000000;0.000000;0.000000;
DE24395;DE73099;March;0.000000;0.000000;0.000000;0.000000;
DE24395;DE25495;January;563.500000;21164.397059;0.000000;0.000000;
DE24395;DE25495;February;429.500000;16131.514706;0.000000;0.000000;
DE24395;DE25495;March;595.000000;22347.500000;0.000000;0.000000;
DE49393;DE54456;January;0.000000;0.000000;154.975389;7065.054491;
DE49393;DE54456;February;0.000000;0.000000;3.000000;136.764706;
DE49393;DE54456;March;0.000000;0.000000;21.000000;957.352941;
DE49393;DE18239;January;0.000000;0.000000;61.000000;2780.882353;
DE49393;DE18239;February;0.000000;0.000000;0.000000;0.000000;
DE49393;DE18239;March;0.000000;0.000000;0.000000;0.000000;
DE49393;DE86489;January;0.000000;0.000000;0.000000;0.000000;
DE49393;DE86489;February;0.000000;0.000000;0.000000;0.000000;
DE49393;DE86489;March;0.000000;0.000000;0.000000;0.000000;
DE49393;DE17391;January;0.000000;0.000000;0.000000;0.000000;
DE49393;DE17391;February;0.000000;0.000000;0.000000;0.000000;
DE49393;DE17391;March;0.000000;0.000000;0.000000;0.000000;
DE49393;DE99192;January;0.000000;0.000000;201.500000;8474.852941;
DE49393;DE99192;February;0.000000;0.000000;0.000000;0.000000;
DE49393;DE99192;March;0.000000;0.000000;60.000000;2523.529412;
DE49393;PL99198;January;0.000000;0.000000;32.500000;1577.205882;
DE49393;PL99198;February;0.000000;0.000000;0.000000;0.000000;
DE49393;PL99198;March;0.000000;0.000000;0.000000;0.000000;
DE49393;DE24395;January;0.000000;0.000000;0.000000;0.000000;
DE49393;DE24395;February;0.000000;0.000000;0.000000;0.000000;
DE49393;DE24395;March;0.000000;0.000000;0.000000;0.000000;
DE49393;DE73099;January;0.000000;0.000000;0.000000;0.000000;
DE49393;DE73099;February;0.000000;0.000000;0.000000;0.000000;
DE49393;DE73099;March;0.000000;0.000000;0.000000;0.000000;
DE49393;DE25495;January;0.000000;0.000000;0.000000;0.000000;
DE49393;DE25495;February;0.000000;0.000000;0.000000;0.000000;
DE49393;DE25495;March;0.000000;0.000000;0.000000;0.000000;
DE73099;DE54456;January;0.000000;0.000000;70.000000;3705.882353;
DE73099;DE54456;February;0.000000;0.000000;57.000000;3017.647059;
DE73099;DE54456;March;0.000000;0.000000;0.000000;0.000000;
DE73099;DE18239;January;0.000000;0.000000;55.000000;2911.764706;
DE73099;DE18239;February;0.000000;0.000000;0.000000;0.000000;
DE73099;DE18239;March;0.000000;0.000000;5.000000;264.705882;
DE73099;DE86489;January;0.000000;0.000000;0.000000;0.000000;
DE73099;DE86489;February;0.000000;0.000000;0.000000;0.000000;
DE73099;DE86489;March;0.000000;0.000000;0.000000;0.000000;
DE73099;DE17391;January;0.000000;0.000000;0.000000;0.000000;
DE73099;DE17391;February;0.000000;0.000000;0.000000;0.000000;
DE73099;DE17391;March;0.000000;0.000000;0.000000;0.000000;
DE73099;DE99192;January;0.000000;0.000000;113.500000;5841.911765;
DE73099;DE99192;February;0.000000;0.000000;80.000000;4117.647059;
DE73099;DE99192;March;0.000000;0.000000;0.000000;0.000000;
DE73099;PL99198;January;0.000000;0.000000;0.000000;0.000000;
DE73099;PL99198;February;0.000000;0.000000;0.000000;0.000000;
DE73099;PL99198;March;0.000000;0.000000;0.000000;0.000000;
DE73099;DE24395;January;0.000000;0.000000;0.000000;0.000000;
DE73099;DE24395;February;0.000000;0.000000;0.000000;0.000000;
DE73099;DE24395;March;0.000000;0.000000;0.000000;0.000000;
DE73099;DE49393;January;0.000000;0.000000;0.000000;0.000000;
DE73099;DE49393;February;0.000000;0.000000;0.000000;0.000000;
DE73099;DE49393;March;0.000000;0.000000;0.000000;0.000000;
DE73099;DE25495;January;0.000000;0.000000;0.000000;0.000000;
DE73099;DE25495;February;0.000000;0.000000;0.000000;0.000000;
DE73099;DE25495;March;0.000000;0.000000;0.000000;0.000000;
DE25495;DE54456;January;0.000000;0.000000;44.000000;2633.529412;
DE25495;DE54456;February;0.000000;0.000000;0.000000;0.000000;
DE25495;DE54456;March;0.000000;0.000000;0.000000;0.000000;
DE25495;DE18239;January;0.000000;0.000000;17.000000;1065.000000;
DE25495;DE18239;February;0.000000;0.000000;0.000000;0.000000;
DE25495;DE18239;March;0.000000;0.000000;0.000000;0.000000;
DE25495;DE86489;January;0.000000;0.000000;0.000000;0.000000;
DE25495;DE86489;February;0.000000;0.000000;0.000000;0.000000;
DE25495;DE86489;March;0.000000;0.000000;0.000000;0.000000;
DE25495;DE17391;January;0.000000;0.000000;0.000000;0.000000;
DE25495;DE17391;February;0.000000;0.000000;0.000000;0.000000;
DE25495;DE17391;March;0.000000;0.000000;0.000000;0.000000;
DE25495;DE99192;January;0.000000;0.000000;220.000000;12941.176471;
DE25495;DE99192;February;0.000000;0.000000;0.000000;0.000000;
DE25495;DE99192;March;0.000000;0.000000;0.000000;0.000000;
DE25495;PL99198;January;0.000000;0.000000;0.000000;0.000000;
DE25495;PL99198;February;0.000000;0.000000;0.000000;0.000000;
DE25495;PL99198;March;0.000000;0.000000;0.000000;0.000000;
DE25495;DE24395;January;0.000000;0.000000;563.500000;21164.397059;
DE25495;DE24395;February;0.000000;0.000000;429.500000;16131.514706;
DE25495;DE24395;March;0.000000;0.000000;595.000000;22347.500000;
DE25495;DE49393;January;0.000000;0.000000;0.000000;0.000000;
DE25495;DE49393;February;0.000000;0.000000;0.000000;0.000000;
DE25495;DE49393;March;0.000000;0.000000;0.000000;0.000000;
DE25495;DE73099;January;0.000000;0.000000;0.000000;0.000000;
DE25495;DE73099;February;0.000000;0.000000;0.000000;0.000000;
DE25495;DE73099;March;0.000000;0.000000;0.000000;0.000000;
