Werk;Periode;Produktion Paletten;Produktion Tonnen;Produktionskosten;Produktionsschichten;Kundentransporte Paletten;Kundentransportkosten;ausgehende IC-Transporte in Paletten;ausgehende IC-Transportkosten;eingehende IC-Transporte in Paletten;eingehende IC-Transportkosten
DE59757;August;29803.626722;5339.491977;2416977.410925;1101.109772;31227.281718;512835.174151;3545.374900;48521.283309;10797.069034;130197.732205
DE59757;September;25166.798019;4562.570154;1575542.456146;758.782060;30692.000000;504945.368078;2749.500000;35506.103897;4024.911574;55402.400276
DE59757;October;25304.955754;4586.763978;1409464.772438;679.741646;30661.029505;499867.348064;2085.500000;27560.235368;3778.019392;52718.940616
DE34431;August;70260.750605;9056.917679;1312897.505681;492.077480;60586.459447;809884.785568;10696.791158;118468.536247;5674.500000;59340.294118
DE34431;September;61793.313727;7762.916172;1112357.603313;406.983964;62229.189873;842766.819561;1961.958120;14848.220041;2278.355460;24679.354892
DE34431;October;51814.376327;7022.292338;965447.510018;375.739882;60944.813876;818911.801457;2388.500000;23528.398268;2118.144540;21757.409814
DE09648;August;15462.714874;3004.261185;489467.339923;532.256406;11804.718282;127185.516827;7463.295680;94178.801757;2919.300000;26001.823529
DE09648;September;11803.085120;2525.462705;416240.448233;443.363910;10050.000000;124365.050529;3570.724802;40550.412275;2139.589733;28138.834697
DE09648;October;11959.201694;2494.008172;388964.370892;411.333766;11547.581718;143785.449826;2597.729218;29157.008804;783.500000;13039.500000
DE06237;August;39941.245279;5081.439603;537168.000000;279.000000;43762.142974;615929.430016;3469.500000;28953.707882;1639.500000;18725.941176
DE06237;September;35821.833438;4703.066033;490440.000000;255.000000;34921.000000;465070.905941;1044.500000;8263.864482;1722.000000;18952.529412
DE06237;October;36525.638730;4730.685003;476005.446989;246.187472;36402.000000;476218.291074;496.000000;3630.989824;937.500000;10782.117647
DE55120;August;21652.711313;4082.938274;729827.785460;211.014625;19485.000000;289370.307124;4370.081200;55366.662941;2658.581200;38914.600471
DE55120;September;16844.813618;3127.922848;539232.000000;164.000000;18435.810127;273195.841178;1497.718413;19570.390758;1428.218413;28352.571058
DE55120;October;15370.575550;2881.692016;503097.432446;154.029093;19290.000000;286476.656971;1862.500000;24625.441176;755.500000;14618.352941
PL58573;August;36848.817584;6089.976342;550495.284793;1042.655324;32854.897579;348745.893549;3008.692481;58468.035083;4803.506760;79893.299962
PL58573;September;33243.444923;5629.946609;495807.918866;950.981089;32554.000000;361134.385071;2355.481033;44785.524019;1730.118140;30439.352538
PL58573;October;32025.008257;5253.522418;426842.353347;836.296591;32852.374900;349069.135665;1852.716432;37019.426534;2517.000000;41850.735294
FR59166;August;61965.587878;7589.551471;1550830.991192;694.801872;67250.562724;1332561.234796;9073.726982;296794.995292;7058.305010;126630.946178
FR59166;September;56526.751526;7127.304928;1440136.828091;644.007247;56929.000000;1231322.270050;4819.354437;172371.910004;1448.699958;37401.996333
FR59166;October;57736.965235;7115.923906;1441572.109889;644.895082;58677.870706;1201592.850569;5582.218282;202206.472204;1359.795322;30584.256238
IT55100;August;27271.313190;3223.892812;686791.242487;467.567225;28080.916200;362372.815341;2283.261403;63346.365458;2052.219100;38855.028485
IT55100;September;41449.680181;4928.236064;998167.768690;669.762107;34080.923222;482569.035416;3299.420737;93288.065167;256.833400;2719.412471
IT55100;October;26088.828101;2997.168716;648750.790319;436.834869;32600.461900;424432.419919;1241.031060;43717.830846;625.500000;6622.941176
IT03043;August;29189.454772;1915.556882;400089.871833;224.215620;31708.083800;328148.843500;1583.862000;18316.185882;1450.561800;25598.149412
IT03043;September;31586.332120;2452.199965;492771.496585;275.803304;26533.076778;281605.218608;256.833400;2719.412471;2003.500000;35355.882353
IT03043;October;16405.148657;1132.352497;224106.084162;122.440098;25580.738100;265701.354918;638.000000;7284.705882;448.500000;7914.705882
ES50600;August;22347.073913;2962.743413;293712.000000;174.000000;25657.937276;363845.501168;807.357100;33483.710250;6708.500000;267783.823529
ES50600;September;23494.373274;2987.504853;288648.000000;171.000000;27499.000000;385539.153053;142.235737;5286.206961;4343.500000;173436.029412
ES50600;October;21035.407274;2703.215041;265814.901754;157.473283;27374.129294;385421.239756;26.264263;930.454803;4921.000000;196006.617647
FR10000;August;1200.611200;97.572106;36889.647508;16.527620;0.000000;0.000000;17.100000;585.926471;17.000000;582.500000
FR10000;September;0.000000;0.000000;0.000000;0.000000;0.000000;0.000000;17.000000;582.500000;17.000000;582.500000
FR10000;October;0.000000;0.000000;0.000000;0.000000;0.000000;0.000000;17.000000;582.500000;17.000000;582.500000
DE18147;August;0.000000;0.000000;0.000000;0.000000;540.000000;5277.691994;0.000000;0.000000;540.000000;3960.071506
DE18147;September;0.000000;0.000000;0.000000;0.000000;322.000000;2954.905479;0.000000;0.000000;322.000000;2311.746635
DE18147;October;0.000000;0.000000;0.000000;0.000000;526.000000;4935.893241;0.000000;0.000000;526.000000;3765.386453
